<?xml version="1.0" encoding="utf-8"?>
<!-- Generator: Adobe Illustrator 24.0.0, SVG Export Plug-In . SVG Version: 6.00 Build 0)  -->
<svg version="1.1" id="Layer_1" xmlns="http://www.w3.org/2000/svg" xmlns:xlink="http://www.w3.org/1999/xlink" x="0px" y="0px"
	 viewBox="0 0 438.9 602.8" style="enable-background:new 0 0 438.9 602.8;" xml:space="preserve">
<style type="text/css">
	.st0{fill:#C1C1C1;stroke:#FFFFFF;stroke-miterlimit:10;}
	.st1{fill:#878787;}
</style>
<title>Asset 3</title>
<g id="Layer_2_1_">
	<g id="Layer_1_copy">
		<path id="Barishal" class="st0" d="M238.5,488.2l-0.5-0.5l-1.7-1.2l-1.9,2.1l3.9,1l0.6-0.4L238.5,488.2z M236,492.1l-0.8-1
			l0.1-1.3l-0.8-0.3l-2.4,1.4l-0.5,1.9l0.4,1.2l1.4,0.1l2.9-1.9l0.3-0.6L236,492.1z M231.9,472.1l-1.3-2.5l-4.6,2.5l-0.3,0.3
			l-0.9,1.2l0.4,2.4l-3.1,5.5l-0.9,1.8l0.5,3.1l1.7,1.2l0.8-0.1l0.9-1.9l5.2-2.4l2.7-3.1L231.9,472.1z M229.9,489l-2.3,1.5l-0.2,1.3
			l2.7-0.6L229.9,489z M226.8,485.4l-0.5,1.6l2.7-0.7l0.9-1.3l0.4-1.1L226.8,485.4z M225.6,467l-1.8-0.5l-2.7,2.5l-2.3,4.1l0.2,1.9
			l-0.2,1.1l4.7-5.2l0.4-0.6l3.3-2.8L225.6,467z M224.6,475.8l-0.1-1.8l-3.9,2.9l-4.8,10l0.4,2.5l0.9,1.1l3.4-0.5l1.7-1.8l-1.8-4.7
			L224.6,475.8z M214.5,476.7l-1.9,0.4l-1.1,3.1l-2.1-1.3l-0.5,0.1l-0.2-1.2l-1.7-1.2l-3.9,1l-1-0.7l-2.1,2.5l0.9,2.7l-0.8,0.6h-2
			l0.1,2.5l-1.7,3.5l-1.2,0.4v2.2l2.4,2.1l4.9,1.6l2.9,0.1l2.4-1.1l3.4-2.9l0.6-3.5l3.4-7.8l0.3-2L214.5,476.7z M263.6,484.6
			l-0.7-0.6l-1.5,0.1l-1.5,3h1.4l-0.1-1.1l1-0.8l0.1,0.9h0.6l0.9-0.8L263.6,484.6z M257.7,482.7l-0.9-0.3l-1.5,1.4l-1,2.3l0.4,3.3
			l1.3-0.2l2.4-5L257.7,482.7z M241.9,476.5l-1.9,2.3l-3.2,0.5l-2.1,2.9l-0.1,1.5l0.8,2.3l5.4,0.7l-0.1-1.3l1.2-1.5l1.4-4.9l0.4-1.2
			L241.9,476.5z M244.4,474.5l-1.9-2.4l-1.6,1.6l-0.6,2.1l1.7,0.5h0.3l1.7,1l1.4-1.2L244.4,474.5z M250.4,477.6l-2.1,0.1l-2.7,4.4
			l-1.2,4.1l2-0.3l1.4-0.1l2.3-2.9l1.1-1.3l1.5-3.8L250.4,477.6z M187.8,470.8l-1.9,0.8l0.8,3.4l1.8,1.7l3.9,0.6L187.8,470.8z
			 M242.1,376.2l-2.1-4.3l-0.6-1.2l-2.7,1.1l-0.8-0.3l0.5-0.3l2.6-1.1v-0.8l-1.9-0.3l-1.5,0.7l-2.7,2.3l-0.2,0.1l-4.3,1.3l-1.3,0.9
			l2.7,1.1l0.7,0.4l1.8,1.4l0.1,0.1l1,0.7l0.6-0.6l3.5,7l2.8-0.5l1.9-1.7l0.5-1.4L242.1,376.2z M241.1,384.7l-0.2,0.6l2.4,0.4
			l0.4-1.8L241.1,384.7z M240.2,476.5l-2.3,2.1l1.5-0.2l0.8-0.4l1.1-1.2L240.2,476.5z M234.8,485.2l-0.7-1.2l-0.8,0.6v2.8l1.6-1.3
			L234.8,485.2z M247.7,443.9l0.1-4.1l-0.8,0.5l-0.6,2.7l-1.2,1.9l-0.3,2.9l2.4-2.4l0.8,0.1L247.7,443.9z M243.4,456.1l-2.4,0.5
			l-2.4,2.3l-1.2,2.5l-0.4,0.4l-4,4.3l-0.9,3.8l0.7,2.6l-0.1,0.7l0.8,2.9l0.6,3.3l5.6-7.1l1.7-2.4l1-1.2l0.2-4l1.1-2.4L243.4,456.1z
			"/>
		<polygon class="st0" points="267.8,434.6 265.8,438.1 265.9,448.5 264.2,459.8 263.1,462.7 260.7,466.6 256.3,469.8 252.2,474.4
			248.4,475.5 246.1,475.7 244.9,474.4 243.1,472 242.8,470.4 245,463.7 245.4,456.2 243.7,453.9 239.6,455.2 236.7,455.2 236,457
			234.3,458.2 233.7,459.5 227.7,467.1 223.7,466 222.5,466.5 218.4,469.8 215.9,476.7 214,475.5 212,477.2 211.3,479.4
			209.8,478.6 208.7,477 206.4,476 206.2,476.5 203.3,477.1 202.4,476.4 201.4,476.8 199.6,479.6 200.6,481.9 198.1,482.1
			197.5,483 197.7,484.7 196.4,486.9 194,489.1 192.1,488.9 189.4,486.7 190,482.8 189.3,482.5 190,480.4 193.6,478.3 194.3,477
			192.4,477.3 187.8,470.8 185.2,469.5 184.1,471.6 185.7,478.2 184.7,479.6 182.9,480.2 180.9,479.1 180.4,474.5 179,472.3
			177.5,467.4 178.5,460.7 175.4,451.8 174.5,446.3 179.5,434.7 184.6,430.3 185.8,424.9 188.5,424.8 188.2,424.1 186.4,423.8
			183.9,425 184.7,425.5 184.3,428.8 177,435.2 174.8,432.9 175.7,430.1 175.8,431.3 178.8,429.5 181,429 181.8,427.8 180.7,426.6
			178.5,427 176.5,426.4 175.9,425.1 176.6,423.5 179.1,423.5 183.5,424.7 183.5,423.4 179.4,423.1 182.3,419.4 183.4,415.2
			182.5,414.2 179.2,413.7 180,409.8 176.8,408 177.6,406.3 179,407.8 179.9,407.4 181.2,406.2 180.4,405.3 178.1,404.5 175.2,405
			174.3,404.1 178.4,401.2 180.6,401.7 180.9,398.7 179,398.8 179.1,397.4 178.2,396.5 181.6,395.9 181.1,394.3 179.3,394.1
			181.2,391.9 182.3,391.2 181.4,387.4 183.7,388.5 188.7,387 190.3,380.7 192.6,380.2 192.7,376.7 193.8,376.6 196.2,373.1
			198.9,373 199.7,369.8 200.4,369.1 199.7,368.5 201.3,368 202.3,366.6 205.1,367.7 207.3,366.2 209.1,368.5 208.7,372.1
			209.2,372.6 208.3,374.5 209.2,376.7 209.9,375.7 211.5,375.7 210.9,376.5 211.3,377.1 212.9,375.5 213.9,376.1 217.5,375.8
			217.7,373.2 216.1,370.2 217,367.8 221.8,367.6 226.6,369.2 226.8,369.9 225.6,371 223.1,371.5 226.8,372.3 224.4,373.2
			227.1,374.3 226.5,374.7 229.6,375.4 232.3,377.2 232.4,377.3 234.5,378.9 236.6,383.3 233.2,386.1 233.2,386.6 231.6,389.7
			232.1,391.9 233,392.5 233.1,393.1 234.4,391.4 232.4,389.1 235.1,386.1 235.3,385.2 236.7,384.5 240.9,385.3 240.8,385.5
			241.6,385.8 243.2,385.9 243.2,385.7 245.8,386.2 248.9,388.9 250.5,391.5 249.4,392.5 247.4,393 241.6,392.5 237.4,394.3
			234.7,393.3 233.7,393.7 236.1,394.4 237.1,396.1 239.6,393.9 242.8,393.4 243.8,393.4 246.4,393.9 248,394.8 252.7,409.4
			254.8,411.7 257.2,413 259.3,420.2 268.3,431.4 		"/>
		<path id="Chottogram" class="st0" d="M270.4,437.1l-0.3,3.8l-0.6,0.6l-0.4-0.4l0.8-2.3l-0.8-0.6l-0.3-0.8l1.2-2.4L270.4,437.1
			L270.4,437.1z M272.8,445.5l0.9-0.6l1.2-3.2l-0.6-2.3l-2.1,5.1L272.8,445.5z M278.6,437.6l0.9-1.6v-1.5l-1.2-1.8l-1.9,1.1v2.6
			l1.1,1.3L278.6,437.6z M280.9,446.3l-1.7-6.5l-1.4,0.4v6.3l-7.5,19.2l1.2,1.3l1.2,1l0.8-0.3l0.6-2.9l4.1-6.4l1.9-4.6L280.9,446.3z
			 M286,439.5l-1.2-1.9l-2.3,2l1.3,1.8l2-1.1L286,439.5z M284.1,444.9l-0.6-1.5l-1.2,1.1l0.8,2.9L284.1,444.9L284.1,444.9z
			 M280,429.4l-0.3,1l1.3,7.3l1.3,1l1.6-1.7l0.7-2.4l0.6-4l-2.6-1.7L280,429.4L280,429.4z M281.5,442.4l0.7,1.7l1.3-1.3l-1.4-1.5
			L281.5,442.4L281.5,442.4z M254.2,381.2l-0.4-0.7l-2.5-3.1l-0.7-0.3l-1.2,0.8l2.5,4.1l0.2,0.2l2.8,4.6l0.4-0.4l0.4-1.1l-1.6-3.7
			L254.2,381.2z M243.9,353.3L243.9,353.3l-0.1,0.2L243.9,353.3z M277.8,432.2l-0.2-2.1l-1.7,0.8l0.7,1.5L277.8,432.2z M282.8,466.8
			l-2-0.8l-0.8,0.5l-1.6,3.5l0.3,2.1l1,0.9l2.1-1.2l1.5-2l-0.4-0.4l0.7-1.4L282.8,466.8L282.8,466.8z M272.8,423.9l0.3,1.4l2.1,0.4
			l0.6,0.1l3.6-1.4l-2.4-3.6l-1.6,0.5l1.3-0.9l-3.3-2.8l-4.4-0.4l-1.9-1.3l-1.5,1.3l0.1,0.7l6.6,6.8L272.8,423.9z M303.4,432.4
			l0.5,1.4l1.3,0.8l0.7-2.2l-0.9-1.1L303.4,432.4z M316,406.6l-0.3-1.1l-1.3-1.6l-3.4-1.8l-2.5,1.5l1.1,4.8l2.5,3.1l2.9,0.9l2.3,1.6
			l1.3-3.8v-1.7L316,406.6z M307.4,412.1H306l-0.5-0.3l-0.7,1.7l0.9,3.6l1.8-2.8L307.4,412.1L307.4,412.1z M307.6,419.5l-1.4,2.7
			l-0.6,1.8l1,1.1l3.4-4.3l0.3-1.8l-0.8-0.7L307.6,419.5z M330.5,422.1l-6-7.9l-1.6-1.1l-2.4,1.4l0.3,0.7l-1.2-0.1l-0.6,1.4l0.6,0.5
			l-0.8,0.3l1.6,7.7l1.7,4.5l3.4,5.9l2.8,1.2l2.2-0.3l3.3-1.5l0.8-1.8l-0.4-3L330.5,422.1L330.5,422.1z M364.3,485l-1.6-2.2L360,485
			l-0.6,2.5l1.1,5.1l-0.9,2.2l0.2,3.1l-0.9,1.8l0.5,1.5l0.7-0.1l4.5-12.2L364.3,485L364.3,485z M435.2,539.5l-2.7-13.8l-1.7-20.4
			l0.8-10.7l0.9-1.9l-0.6-1.2l1.3-4.8l-1.3-5.6l-0.1-6l-1.2-3.8l0.6-2l-3.2-7.2l1.6-1.1l2.1,1.9l0.4-5.2l-0.9-1l-0.7-7.5l-1.1-3.2
			l0.1-3.2l-2-7.1l-1.2-13l-1-3.4l-1-0.8l0.9-1.7l-0.1-2.6l-1.2-7.3l-2.1-6l-1.1-1.8l-1-0.9l0.5-1l-0.8-1.2v-1.4l-1.8-2.5l0.5-0.9
			v-2.4l-0.6-1.6l-1-2.2l-1.4,0.7l-1.3-2.6l-1.2-0.3l-0.9-1.6l-2-0.3l0.9-5.3v-5.2l0.8-2l-0.9-3l-1.7-1.9l0.7-2.2l-0.8-1l0.6-2.3
			l-0.2-2.5l-0.7-0.8l-0.1-4.6l4.5-0.9l-0.8-2.4l-1.1-2l-0.1-2l-1.4-1.5l1-2.8l-0.3-1.3l-0.6-0.9l-0.5-0.8l-0.9-0.2l0.2-2.8
			l-0.9-0.6l-0.2-2l-0.9,0.3l-0.2-2.5l-0.1-0.9l-0.5-1.4l-0.9-1.2v-3.5l-1-0.9l0.5-2.1l-1.5-3.4l-0.8-0.8v-2l0.6-1l-1.8-0.5l1.3-6.5
			l-2.4-3.5l-1.6,0.2l-1,1.3l0.5,2.2l-0.8,2.2l-1.7,1.2l-0.7-0.6l0.5-3.1l-1.4-1.2l-1.6-0.4l-0.5-3.2l-0.9-0.1l-2,1l-4.2,5.7
			l-1.4-0.1l-0.3,2.4l-1.5,0.9l-3.3-1.7l-1.2,0.4l-3.7-7.3l-2,0.2l-0.5,2.9l-1.4,1.8l1.4,6.5l-0.5,3.2l1.2,0.8l-0.3,4.2l0.6,0.9
			l-0.8,0.9l1.4,1.6l0.1,2.2l-3.1,1.4l0.5,2.5l-0.5,0.7l-3.6-0.4l-5.3,4.2L359,335l0.5,0.4l-3.4,4.2l-3.5,7.6l0.4,1.8l1.6,1.7
			l-0.1,1.9l0.8,1.4l0.6,3.9l0.7,0.8l-0.1,2l0.8,0.8l0.1,2l0.1,1.7l0.2,0.8l-0.9,0.9l-3.3,0.1l-0.5,2.3l-2.3,3.6l-2.4,2.1l-2.5-1.4
			l-0.9,1.5h-1.2l-1.7,0.1l-0.4,0.4l-3.1,2.4l-1.4,0.4l0.7-1.8l-1.4-0.2l-1.3,1.3l-1.9-1.3v-1.3l-1.3-0.5l0.4-2.1l0.1-1.8l-1.5-0.1
			l0.3-1.6l-0.2-1.2l-0.8-1.8l0.4-0.8l-1.9-1.9l0.8-0.9l-1.4-1.3l0.6-1l-0.5-1.4l-0.6-1.5l-0.5-0.8l-0.9-2.6l-0.3-1.4l-2.6-0.3
			l1.5-1l-0.8-1.3l-1.4-0.5l0.8-1.1h-3.9l-1,1.2l-0.3,1.7l-0.8,0.3l-0.6,4.5l0.3,2.7l1.7,4.6l-0.2,1.2l0.4,1.1l1,0.4v2l-1.9,0.8
			l-2.3-1.2l-2.3-3.7l-1.3-5.1l-0.8-0.7l-0.5-8.4v-1.3l-0.8-2.1l0.6-0.8l-1.5-0.9l1.4-1.2l-0.5-1.2l-1.8-0.7l0.5-2l1.2-0.4l1-1.8
			h-2.4l-0.8-1l-0.4-0.6l-0.4-3.9l-2.1-3.3l-0.6-4.2l-1.5-0.5l0.1-0.9l-1.1-1.1l-1.9-0.4l-0.3-0.7l1.3-2.5h-1.7v-1.8l-1.8-2l0.2-0.8
			l-1.5-0.5l-0.5-7.3l1.4,1.4l1.8,0.2l0.3,0.9l1-1v-3.1l-0.9-0.5l-4,0.1l-0.4-1.9l0.6-3l1.1-1.3l2.2-0.1l1.8,0.3l1,1l0.9-3l-0.2-2.8
			l2.4-4.3l-2.4-4.4v-1.7l1.6-1.4l-1.3-1.6l3.9,0.2l-1-2.3l0.5-1.5l1.1-2l0.5,1.5l1-0.5l0.6-2.6l-0.9-0.5l0.1-1.6l1,0.1l0.5-2.4
			l-0.9-2l-1.5-0.2l0.3-3.6l-1.2,0.3l-0.9-0.7l0.3-1.3l1.9-0.7l-1.9-0.7v-1.6l-0.9-0.2l1.3-2l0.3-1.8l2.3-1.1l1,0.4l-0.2-1.6
			l-2.9,0.9l-0.7-0.6l0.8-1.8l1.1,0.6l0.2-1.2l0.8,0.3l0.9-1.1h0.8v-3l-1.3-0.6l-1,0.5l-1.3,1.7l-0.3,1.6l0.5,0.6l-1.1,0.2l-7.4-1.4
			l-2-2.6l-3.4,2.4l-5.4,0.1l0.3,2.8l1.4,1l-0.2,0.4l-5.1-0.3l-2,2.9l-3.1,1.9l1.5,2.6l4.3,2.4l0.9,2.1l-1,1.9l-5.6,3.8l-1.5,2.9
			l0.4,4.1l-2.4,2l0.2,2.6l-2.4,2l-0.8,3.3l-2,1.7l-1.1-0.1l-2-1.9l-2.4,1.2l-5-0.3l-2,0.9l-0.6,1.4l1.1,1.9l0.1,2.8l-3.4,4.1
			l-0.6,1.6l0.1,1.7l1.8,2.9l-0.8,2.9l-2,0.5l-3-1.7l-3.3,0.6l-1.5,5.5l2.6,0.5l1.1,2.5l-1.3,0.3l-0.8,1.4l3.7,1.6l2.4,5.5l-2.5,1.6
			l-3.8-1.5l-2.2,1.3l-2.7,0.4l-5.1,10.4l1.2,3.4l2.6,1.9l-0.5,3.2l3.7,8.4l2.3-0.2l0.1,5.2l1.4,4.6l-1.3,3.3l-0.3,7l0.6,2.7
			l1.9,2.9l1.1-1.2l1.3,0.1l2.5,3.5l2.3,5.1l2.1,2.6v0.1l2,3.9l-0.5,5l3.9,7.6l2.5,3.4l0.9,0.1l0.6,0.5l2.6,0.5l1,1.9l9.2,6.1l7,8.1
			l3.7-4.1h1.5l1.3,0.5l1-0.6l0.5,0.3l0.4,0.5l-0.7,0.9l1.1,0.5l5.9-3.8l1.4,0.5l1.8-1.5l-1.9-4.5l1.7-2.2l1.9-0.5l-0.9-0.6l0.1-1.3
			l-1.8-2.3l-1.6,0.3l-0.5-0.5h1.2l-0.9-2.1l-2.1-0.1l-0.9-2l-1.4-0.2l0.3-0.4h0.9l1.6,1.9l0.9-0.9l0.8,0.4l2.2,2.2l3.8-4.6l0.8-0.4
			l3.1-0.7l3.2,0.3l1.1-0.5l0.2-1.1l-2.6-0.8l1.9-1.3l2.3,1.6l0.2,1.4l1.1,0.8l1.2-2.5l-0.9-1.4l0.2-1.1l-1.4-0.9l1.7-3.4l0.1,1.5
			l-1.1,1.4l2.8,2.8l0.7,3.4v0.6l1,2.4l7.8,4.9l4.1,4.7l0.7,1.8l6.4,6.5l3.8,5.7l0.9,3.6l1.4,2l-0.4,0.7l1,1.3l2.7,11.7l-0.3,2.4
			l3.1,4.6l0.9-0.7l0.6,0.3l-0.1,3.5l1.7,6l1.1,2l0.5,0.2l0.9-0.9l0.4,0.8l-0.1,2.6l1.3,4.2l0.3,2.5l-0.8,1.9l1.5,2.5l2.5,8.8
			l0.4,3.5l-0.6,3.8l-5.1,14.2l0.6,1.5l1.5,1.5l0.6-0.1l0.3-0.8l0.7,0.9l-0.9,1.3l0.1,1.4l-0.7,0.1l0.1,2.3l-0.7,1.3l0.8,1.1
			l1.8-0.6l-1,1.2l-1-0.3L363,520l0.2,0.7l1.1,0.8l-1,0.8l-1.3-0.6l-0.9,1.5l0.3,0.7l3.4,4.1l1.4,0.7l0.5-0.9l-1-0.7l0.9-0.4
			l-0.5-0.9l0.8-0.4l0.6,0.6h2.8l2.4-0.8l1.2-12.1l0.7-1.6l1.2,4.5l-0.3,0.5l-1.1,1.8l0.6,5.9l-1.1,3.2l-1.3,1.3l-0.5-0.1l-1.2,1.3
			l-0.5-0.3v1.2l6.2,8.5l2.9,6.9l0.2,12l12.6,15.9l1.7,5.9l2.4,5.1l4.6,7l3.4,7.9l2.2,1.9l0.6-1.6l-2.2-8.4l-1.9-4.7l-2.6-2.7
			l-1-3.5l0.1-2.9l-1.1-5.6l1.2-2.8l-3.5-4.1l-0.3-2.5l0.3-0.6l-1.9-0.7l-1.6-3.3l1.7-3.9l0.5,0.3l1.5-1.8l-2.3-5.9l-0.5-3.3
			l3.1-2.8l2.2-0.7l-0.1-3l1.2-0.8l0.3-2.7h1.8l1.4,1l1.5-0.5l2-3.7l2.4-1.8l2.1,0.2l3.1,4.3l0.7,2.7l-0.4,2.2l0.9,1.6l6.2,1.8
			l1-0.4l0.1-1.4l1.5,0.3l1.8-1.1l1.2,0.8l1.3,5l1.9,4l0.2,2.8l1.7,0.2l1.5-2.2l4.1-2.7L435.2,539.5L435.2,539.5z M286.2,469.3
			l-0.5,3.4l3.1-2.6l-0.4-1.5L286.2,469.3z M306,430.3l1.3,1.7h1l0.1-0.6l-1.6-1.7L306,430.3z M294.3,423.8l0.5-2l-0.4-0.2h-1.2
			l-0.5-0.4h-1.1l-2.2,2.1l-1,2.3l-0.1,3.1h0.9l3.5-4.1L294.3,423.8z M296.4,442.6l-1.3-4.3l-2-2l-0.1-1.6l-5.6-2.6l0.1,6.1
			l-0.6,3.7l0.3,8.3l-1.5,6l-3.5,7.5l0.6,1.3l3.5,2.4l4.2-3.9l3.1-1.4l0.2-1.5l0.6,0.2l1.1-2l1-0.6l0.2-2.3h0.6l1.7-5.1l-0.2-4.3
			L296.4,442.6L296.4,442.6z M297.4,423.4l2.1,0.9l0.2-1.5l-1-0.2L297.4,423.4L297.4,423.4z M294.9,424.6l-2.7,3.4l2.3,0.1l2.9-1.6
			l1.7-1.9l-1.7-1.1L294.9,424.6L294.9,424.6z"/>
		<path id="Dhaka" class="st0" d="M301.3,234.9l1.3,0.3l2.1-1.5l-1.6-2.8l-1,0.2l-0.8-0.6l-0.2-1.3l2.1,0.1l0.3-0.8l-1.3-4.8
			l-1.4-0.1l0.8,1.3l-1.6-0.6l-1.7,2.2l-0.2-1.5l1-0.5l-2.5-0.7l-1,0.8l-0.6-0.3l2-2.4l0.8,1.4l0.7-0.6l2.5-3l1.9-4.6l-3.4-1.8
			l0.6-0.9l-0.3-1.2l-2.1-0.9l-0.2-1.5l1.8,0.9v-0.9h0.9l0.2-1.7h1.4l0.8-0.9l-1-1.5l1.8-0.3l0.1-1.6l-1.2,1.3h-4.5l-5.5,4l-1-1.9
			l-4.1-1.3l-3.4,2.9l-1.2-0.5l-10-0.2l-3.6,1.6l-1.4,1.8l-1.9,3.7l-3.7,1.9l-2.6-2.7l-1.9,3.6l-1.8-2.1l-2.4,3.8h-2.8l-2.3-2.1
			l-3-0.2v0.9l-0.9,2.1l6.6,4.9l-0.4,4.5l-2.2,1.2v2.9l1.8,4v1.7l-4.4,0.1l-0.6,0.9h-3.6l-2.6-2.6l0.2-1.7l-4.6-1.8l-1-1.3h-3.6
			l-1.2,5.8l-1.2-0.9h-2.4l-1.8-1.9l-1.5,2.1l-5.3,0.8l-3.7-1.8l-2.6-5.5l1.1-2.5v-2.6l-2.3-3l-1-2.2l1.1-2.5l1.7-0.6l-7.5-4.9
			l-2.3-4.7l0.4-2.3l1.9-2.2L203,201l-2.9-4l0.1-5.7l-3.1-0.4l-1.2-2.7l-1.4-0.8l-3.3,0.8l-5,6.5l-2.8-3.6l-2.4-1l-0.3,1.9l-3.2,1.4
			l-0.8-0.4l-0.7,1.6l0.5,1.8l2.3,2.1l-0.5,0.9l-1.2,0.1l-1.5,2.7h-1.3l-0.5,2.7l-1.9,0.7l-1.5,5.2l-4.8-0.8l1.4,4.4l-0.2,0.4
			l-0.7,0.4l-0.2,0.3v0.9l-0.1,0.3l-2.2,1l-0.1,1.7l-0.2,0.2l-0.4-0.2l-0.6,0.1l0.4,0.6l0.8,0.3l0.4,0.1l0.5,1.3l-0.9,1.9l0.2,0.3
			l0.7-0.3l0.1,0.2L163,225l-0.1,1.2l-1.6,1l0.6,1l0.8,3.1l0.5,0.2l1.2-0.3l0.7,3.5l-1.6,2.7l1.9,1.9l0.2,0.5v1.8l1.2,1.9l0.1,0.6
			l-0.6,4v0.8l1.4,6.5l-0.1,0.2l-1.2,0.3l-0.3,0.5l0.4,0.7l0.3,0.2l1.6-0.2l0.4,1.3l1.1,0.7l-0.3,2.9l0.6,3.5l-0.8,1.7l-4,3.3H165
			l-1-0.2l-0.6,0.1l-4.3,3.3l-0.8,6.5l0.2,0.3h0.7l0.4,0.6l0.1,2l0.1,0.3l-0.7,3l0.1,0.2l0.7-1.3l2.7,4.9l-1,0.5l-1.1,0.3l-1.1,1.5
			l-1.2-0.1l-1.3,0.5l-1,0.1l-4.1-0.2l-0.3,0.3l-2.6-0.2l-1.3,0.8h-0.5l-1.3-0.1l-0.7-0.9l-3-0.2l-1.3-0.8l-11.9-9.2l-1.1,0.3
			l0.1,1.4l-0.3,0.4l-0.4-0.6l-0.2,1.5l0.7,1.4l-2.5,4.3l-1.1,3.4l0.4,1l-0.5,0.8l-1.2,0.2l-0.2,0.5l1,0.3l-0.6,1.8l-1.8,1.4
			l1.3,0.7l1.3,2.8l2.6,3.2l2.3,0.6l3.1-1.6l2.7,2.5l0.3,1.6l4.3,1.2l0.2,1l-1.8,1.9l1.6,0.6l1.2,1.4l0.7,3l2.6,1.2l-3.1,1.2
			l-1.3,2.4l3.8-0.9l4.2,2l2.8,2.3l-0.1,4.9l1.2,3.3l-0.3,0.4l-2-0.5l0.6,4.7l1.1,2.9l1.9,1.6l0.9,2.4l-2,3.8l5.7-0.5l-0.4,1.9
			l0.8,1.7l-0.8,2.4l1.4,1.9l3.8-2.4h2.2l0.6,0.6l-0.5,0.7l-3.2,0.7l-0.1,0.7l1.7,1.9l-0.2,1.3l-2.8,0.5l-1.1,1l-1.3-1.2l-0.2-1.5
			l-0.9,1l0.2,1.3l1.9,2.2l2.7,1.2l-0.3,0.9l1.3,0.9l-0.8,1.9l2,0.9l0.9,3.6l3.3,1.4l-0.3,1.6l1.8-0.1l0.7,0.6l-1.1,2.7l2.8,0.7
			l1.2,2l2,1.4l-0.1,0.6l-1.4-0.3l0.4,1.2l-0.4,0.3l-1.2-0.5l-1.3,0.4v1l-0.9-0.3l1.1,1.8l1.8,1.4l2.3-0.6l1.6,1l2.1,0.1l1.2-0.9
			l1.1,2.7l1.1-0.7l-0.9-3.8l2.3,1.1l5-1.5l1.6-6.3l2.3-0.5l0.1-3.5l1.1-0.1l2.4-3.5l2.7-0.1l0.8-3.2l0.7-0.7l-0.7-0.6l1.6-0.5
			l1-1.4l2.8,1.1l2.2-1.5l1.8,2.3l-0.4,3.6l0.5,0.5l-0.9,1.9l0.9,2.2l0.7-1h1.6l-0.6,0.8l0.4,0.6l1.6-1.6l1,0.6l3.6-0.3l0.2-2.6
			l-1.6-3l0.9-2.4l4.8-0.2l4.8,1.6l0.2,0.7l-1.2,1.1l-1.7,0.4l3.7,0.8l5.4-1.7l1.5-1.7l0.3-1.7l2.3-3.6l2.5-1.1v0.5l1.2,0.9l2.2-7.7
			l-0.4-0.9h0.6l1.1-2.8l0.1-0.2l0.7-1.2l-3.7-8.4l0.5-3.2l-2.7-1.9l-1.2-3.4l5-10.4l2.7-0.3l2.2-1.3l3.8,1.5l2.5-1.6l-2.5-5.5
			l-3.7-1.7l0.8-1.4l1.3-0.3l-1.1-2.5l-2.6-0.5l1.5-5.5l3.3-0.6l3,1.7l2-0.5l0.8-2.8l-1.8-2.9l-0.1-1.7l0.6-1.7l3.5-4.1l-0.1-2.8
			l-1.1-1.9l0.6-1.4l2-0.9l5,0.3l2.4-1.2l2,1.9l1.1,0.1l2-1.7l0.8-3.3l2.4-2l-0.2-2.6l2.4-2l-0.4-4.1l1.5-2.9l5.6-3.8l1-1.9
			l-0.9-2.1l-4.3-2.4l-1.5-2.6l3.1-2l2-2.9l5.1,0.3l0.2-0.5l-1.4-1l0.4-2.1l5.4-0.1l3.4-2.4l1.9-2.7l-0.7-0.3l-2.8,1l1.2-3.7
			l5.9,0.3l0.2-1.5l-2.1-3.1L301.3,234.9z M239.2,365.8l-2.1-1.1l-0.6,1.1l-1.5,2.3l-0.3,1.2l2.5-1l1.7-0.1l-0.8-0.9l1-0.2
			L239.2,365.8z"/>
		<path id="Mymensingh" class="st0" d="M303.3,202.8l-1.9-0.8l0.8-1l-0.5-1.6l-1.5,1.6l-2.5-1.6l-1.7,0.9l-0.4-0.7H294l1-0.8
			l-0.4-1.4l0.7,0.4l0.4-0.7l-0.7,0.1v-0.7l-1.2-0.1l-0.2-0.6l0.9-0.6l1.4,0.3l-0.1-0.9l1.3-0.9l-1.4-0.8l1.4-2.3l-0.2-1.9l-1.5-0.9
			l-1,1.4l0.3,0.8l-1.3,1l1.3,1.5h-1.4l-1.5-2.4l0.6-2l0.8-0.6l-0.4-0.8h-1l-1.1-3.8l-2.1-1.6l-3.5-0.5l-1.3,2.3l-0.9-0.2l-0.4-1.1
			l-1.3,0.4l-1.1-2.2l-3.4-0.1l-0.1-2.6l-0.6,0.1l2-0.9l0.4-1.3l-1-1.4l-1.6-0.4l0.3-3l-1.3-1.7l0.5-0.9l2.4-1l-2.9-0.9l-0.2-3.4
			l1.4-0.3l1.2,1.1l1.5-0.5l-0.3-1.9l-2-1.8l0.6-1.1l-0.3-2.9l1.6-0.7l-0.5-1.4l-3.6,0.9l-4.1-0.4l-3,0.9l-3.2-1l-0.9-0.6l-2.4-1.3
			l-1.5,0.7l-0.5,1.1l-1.7,0.8l-0.7,0.4l-1.8-1.3l-1.4,1.2l-1.6-1.1H250l-0.8-1.9l-1.6,0.4l0.1,0.9l-2.1,0.1l-0.9-0.6l-3.1,0.8
			l-6.2-0.4l-0.1,0.5l-5.3,1.8l-0.7,0.8l-3.6-1.6l-3.3-0.4l-3.6-3l-2.2,0.4l-7.2-1.8l-1.2,0.4l-5-2.1l-5.6-0.3l-5.2-3.7l-2.4-0.4
			l-2.4-1.6h-2.1l-1.4-2.1l-1.7,0.8l-0.4-0.9l-1.1,0.4l-2.4-0.8l-2.8,2.2l-4.4-0.9l1.2-1.5l-1.1-1l0.1-1.5l-1.4-2.2L170,131l0.8-2.9
			l-5.4-1.7l0.1,0.1l0.4,1.3l0.9,0.6l-0.3,2.1l-1.6,0.9h-1.1l-0.3,0.1l-2.4,2.5l3,7.3l-0.6,2.5v0.3l0.6,1.5l-1,1.2l0.2-0.3l-3.8,0.4
			l-2.4,4.5L157,153l-2.1,2.9l0.1,3.1l-0.1,0.3l-1.1,2.1l0.7,1.1l0.3,0.3l0.3-0.2l0.1,0.2l0.2,2.5l-0.7,1l1.1,5.1l0.2,0.6l1.4,2.7
			v1.1l-0.5,2.4l1.1,1.8l-0.2,0.1h-0.4l-0.6,0.4l-1.1,0.7v0.6l2.1,5.5l2,2.1l2.5,1.3l1.1-0.1l0.3,0.6l-1.5,0.2l-0.8,1.1l-0.1,0.8
			l1.3,1l0.3,0.1l0.6-1.1l1.5,1.2l1.2-1.1l0.9,0.9l0.1,2.1l0.6,0.4l0.2,0.4l-0.4,1l-1,0.6l1.6,1.8v1.4l0.5,0.4v1.2l-1.2,0.8v4.1
			l-1.9,0.9v0.6l4.8,0.8l1.5-5.2l1.9-0.7l0.5-2.7h1.4l1.5-2.7l1.2-0.1l0.5-0.9l-2.3-2.1l-0.5-1.8l0.7-1.6l0.8,0.4l3.2-1.4l0.3-1.9
			l2.4,1l2.8,3.6l4.9-6.5l3.3-0.8l1.4,0.8l1.2,2.7l3.1,0.4l-0.1,5.7l2.9,4l0.3,2.3l-1.9,2.2l-0.4,2.3l2.2,4.7l7.6,5.1l-1.7,0.6
			l-1.1,2.5l1,2.2l2.3,3v2.6l-1.1,2.5l2.6,5.5l3.7,1.8l5.3-0.8l1.5-2.1l1.8,1.9h2.4l1.2,0.9l1.2-5.8h3.6l1,1.3l4.6,1.8l-0.2,1.7
			l2.6,2.6h3.6l0.6-0.9l4.4-0.1v-1.7l-1.8-4v-2.9l2.2-1.2l0.4-4.4l-6.6-4.9l0.9-2.1v-0.9l3,0.2l2.3,2.1h2.8l2.4-3.8l1.8,2.1l1.9-3.6
			l2.6,2.7l3.7-1.9l1.9-3.7l1.4-1.8l3.6-1.6l10,0.2l1.1,0.5l3.4-2.9l4.1,1.3l1,1.9l5.5-4h4.5L303.3,202.8z"/>
		<path id="Khulna" class="st0" d="M132,423.4l0.8,0.9l1,0.1l-0.9,0.6l0.8,3l0.4,6l1.2,0.9l-0.2,3.8l-1.2,1.6l3.8,5.1l0.1,0.6
			l1.6,3.4l0.2,0.2l-1.7,3.4l3.9,12.9l0.7,0.6l1,1.3l-0.1,2.5l-2.3,4.3l2.1,2.3l4.8-13.2l-4.1-7.7l3-3.4V451l0.1-0.2l0.4,1.3
			l0.7-0.3l-0.4-3.5l2.3-2.9l1.8-4.1l-0.9-4.5l-2.7-5.1l-0.5-6l-1.6-5.4l-3.3-4.3l-0.3-0.4l-0.6-2.5l-2.1-1.6l-1.2-0.2l-0.8,0.2
			l-1.5-0.2l0.1,2.1l-5.3,4.7l2.2,2.7l-0.1,1.1L132,423.4L132,423.4z M144.2,488.4l-0.3-7.7l0.5-0.6l2.2,2.6L144.2,488.4z
			 M112.9,499.1l-1.6-0.9l-0.9-3.3l1.4-1.4l4.9,1l1.4-1.7l0.7,1.7l1,1.9l-1.1,0.5l1.2,0.2l0.4,3.8l-2.7-0.7l-3.8,1.1L112.9,499.1z
			 M124.2,487.7l3-1.6l-0.6-2.6L125,480l-2.9-3.5l-0.1-0.3l-2.7-5.9l1.7-2.7l-3.1,0.4l-1-1.3l-1.6-0.2l-0.8,0.3l2.1,1.9l0.4,1.8
			l-3.2,4.9l2.2,1.1l0.9,1.5l-0.7,1.1L113,481l2.3,1l2.4,2.5l1.7-0.4l1.4,0.9v1.7l-1.6,2l0.6,3.1l0.8,0.2l-1.1,0.7l1.5,1.7l1.3-4.6
			L124.2,487.7L124.2,487.7z M107,501l0.2,1.8l-1.1,1.4h-2.6l-3.5-4.9l-2.5-1.7l1.5-6.7l-0.7-2.4l-1.9-2l-0.1-1.5l0.2-0.8l1.3-0.4
			l0.9,0.3l0.2,3.3l2.2,3l-0.7,3.7l0.9,2.4l4.4,2.6v0.9L107,501L107,501z M118.7,506.6l2.3,1.1l-1.5,1.8l-1.9-0.1l0.5,0.6l-0.4,0.5
			l-4.4,0.7l-0.5-1.5l1.5-3.3l0.5,0.2l1.6,0.8l1.1-0.3L118.7,506.6L118.7,506.6z M106.5,480.3l2.8-3.8l-0.6-2.5l0.9-0.1h1l1,2
			l4.3,1.7l-3.6,2.4l0.6,2.5l1.1,0.9l1.9-0.1l0.5,1.5l0.9,0.6l2.7,0.3l-1.5,2.2l-0.2,0.2l0.6,2.7l-2.4,3.4l-5.1-1.1l1.6-8.5
			l-2.7-0.8h-0.5l-1.6,0.1l-1.7-1.3L106.5,480.3L106.5,480.3z M124.9,458l0.3,2.4l-0.9,2.6l1.9-0.6l-0.1,1.8l2.3,2l0.7-2.2l2.2-0.9
			v-0.4l0.1-2.4l3-1.3l2.1,2.3l1-1.6l-1.3-3.3l-0.1-2.3l0.1-2.8l-3.6,1.5l-0.2,0.3l-0.9-1.4l0.3-1.1l-2.4-1.1l-1,1l-1-1.2l-1.8,1.4
			l1,0.3l0.2,0.7l-0.8,0.8l-0.3,1.9l-1.3,0.4l0.1,1.4l-0.8,0.8L124.9,458L124.9,458z M140.9,467.3l-1.8-0.6l-1.2-1.6l-0.2-3.1
			l0.8-0.3l1.1,1l0.7,2.4L140.9,467.3L140.9,467.3z M118.1,500.4l1.9,0.8l0.5,2l-0.8,2.5l-1.2,0.3l-0.4,0.1l-1.6,1l-2.2-1.2
			l-0.4-4.2L118.1,500.4L118.1,500.4z M135.5,469.1l4.1-1.9l1.8,1.3l-3.8,2.9l-2.1-1.6V469.1L135.5,469.1z M161.7,487.2l1.4,4.1
			l-0.2,1.1l-1.7,0.6l-2.1-0.4l-0.2-0.7l-2.6,0.5l-0.2-3.4l-1-1.4l1.9-2l1.4-3.8l-0.6-4.9l1-1.4l0.4,0.4l0.3,1.5l0.7,0.8l1,0.2
			l-1,1.8l1.5,2.9l-1.5,2.7L161.7,487.2L161.7,487.2z M174.3,480.1l1.3,5.1l-1,2.7L173,489l-0.7-0.8l-0.5,0.3l0.1,2.5l-4.4,1
			l-1.1,1.1l-1-0.5l0.4-1.6l-2.2-0.3l-1.2-3.5l-1.8-1.5l1.5-1.5l-0.5-2.1l-1-1.9l1.3-0.9l-0.5-1.2l-0.7-0.2l-0.8-0.4l-0.1-2
			l-0.8-0.2l0.6-2.5l-2.5-1.7l3-2.1l0.2-5.6l3.3-0.5l0.7,0.1l0.9,1.5l0.9,3.1l4.6,3.6l0.4,0.2h1.1l1.8,2.5L174.3,480.1z
			 M152.6,488.7l0.2-1.1l1.2-0.9l1.4,2.7l-1,1.2L152.6,488.7L152.6,488.7z M178.8,428.8l-2-0.6l-0.6-1.3l0.7-1.6h2.5l4.4,1.2v-1.3
			l-4.1-0.3l2.9-3.7l1.1-4.2l-0.9-1l-3.3-0.5l0.8-3.9l-3.2-1.8l0.8-1.7l1.4,1.5l0.9-0.4l1.3-1.2l-0.8-0.9l-2.3-0.8l-2.9,0.5
			l-0.9-0.9l4.1-2.9l2.2,0.5l0.3-3l-1.9,0.1l0.1-1.4l-0.9-0.9l3.4-0.6l-0.5-1.6l-1.8-0.2l1.9-2.2l-1.1-2.7l-1.2,0.9l-2.1-0.1l-1.6-1
			l-2.3,0.6l-1.8-1.4l-1.1-1.8l0.9,0.3v-1l1.3-0.4l1,0.4l0.4-0.3l-0.4-1.2l1.4,0.3l0.1-0.6l-2-1.4l-1.2-2l-2.8-0.7l1.1-2.7l-0.6-0.6
			l-1.8,0.1l0.3-1.6l-3.3-1.4l-0.9-3.6l-2-0.9l0.8-1.9l-1.3-0.9l0.3-0.9l-2.7-1.2l-1.9-2.2l-0.2-1.3l0.9-1l0.2,1.5l1.3,1.1l1.1-1
			l2.8-0.5l0.2-1.3l-2-1.8l0.1-0.7l3.2-0.7l0.5-0.7l-0.6-0.6h-2.2l-3.8,2.4l-1.4-1.9l0.8-2.4l-0.8-1.7l0.4-1.9l-5.7,0.5l2-3.8
			l-0.9-2.4L151,344l-1.1-2.9l-0.6-4.7l2,0.5l0.3-0.4l-1.2-3.3l0.1-4.9l-2.8-2.3l-4.2-2l-3.8,0.9l1.3-2.4l3.1-1.2l-2.6-1.2l-0.7-3
			l-1.2-1.4l-1.6-0.6l1.8-1.9l-0.2-1l-4.3-1.2l-0.3-1.6l-2.7-2.5l-3.1,1.6l-2.3-0.6l-2.6-3.2l-1.4-2.8l-1.3-0.7l1.8-1.4l0.6-1.8
			l-1-0.3l0.2-0.5l1.2-0.2l0.5-0.8l-0.4-1l1.1-3.4l2.5-4.3l-0.7-1.4l0.2-1.5l0.4,0.6l0.4-0.4l-0.1-1.4l-3.8-2.7l-0.4-0.5l-1.1-1.8
			l-5.2-2.1l-0.8-0.2l-0.7,1.2l-0.8,2.6l-2,1.3l-0.9-0.4l-1.3-4H111l-0.9,1.6l-1,0.5l-3.9-1.4h-2.3l-0.3-1.2l-3-1l-1.8-6l-0.3-0.4
			l-2.1-6.5l-0.6-1l-5.2-0.5l-0.8-0.2l-0.8-0.4l-1.7,0.8l0.2-1.1h-0.1l-0.9,0.3l-0.2,0.2l0.2,1.1l-0.1,0.1l-3,1.2h-0.2l0.7-1.3
			l-0.2-0.2l-1.3,0.5l-0.4-0.1l-7.1-2.5l-2.9-3l-2.2-4.1l-0.5,1.3l-1.4-0.3l-0.6,2.4l-1.1,1.1l1,4.8l-1.4,0.6l0.5,1.9l2.4-0.1
			l-0.3,3.1l1.4,0.6l-1.3,0.7l1.1,0.6l0.3,1.2l-0.1,2.1l-1,2l3-1.4l1.2,2.4h-2.8l-0.6,0.7l0.7,4.3l-0.9,0.6l-0.1,1.7h-2.8l0.2,1.4
			l-1.1-0.1l-0.6,1.1l-1.7,0.5l-0.8,1.6l-2.7,0.6l-1.1-1.4l-1.4,1.3l-1.2-0.6l-1.4,1.1v0.5l1.1,0.4l0.1,1.7l1.3,1.8l-1.4,0.5
			l0.5,1.2l-1,0.5l-0.2,0.8l-2,0.4l1.8,1.9l-1.4,5.1l0.9,4.8l-1.1,2.6l2.9,0.6L55,313l-0.9,1.4l1.7-0.3l0.3,0.5l4-1l-0.6,1.5
			l0.9,0.9l1,3.2l2.3,1.4l1,2.2l3,0.9l1.5,2.8l1.1,0.3l0.4-0.8l1,0.6v-1.2l0.9-0.6l1.8,0.3l0.1,1.8l-1.1,1.3l0.2,2.4l-1.2,0.6
			l-1.2-0.7l-0.7,2.4l0.3,1.3l-0.7,1.7l0.9,2.8l-2.7,1.6l1.2,3.7l-0.6,0.3l-1.2-1l-0.4,1.8l-1.2-1l-1.2,1.2l2.5,2.7l-0.3,1.7
			l2.5,1.5l2-0.2l1.4,2.1l1.2,0.3l1.6-0.1l-0.6-2.7l0.1-0.6l0.8-0.1l1.2,0.6l0.6,0.7l1.4,1.4l5.7-0.5l0.5,2.2l0.9-0.4l2.2,1l2.6-2
			l1.4,1l-0.7,0.5l-0.5,2.6l-1.2-1.1l-0.7,0.2l-0.7,1.4l-1.5,0.7l-0.6,3.1l-0.8-0.1l-0.2,1.4l-1.2,0.5l-1,1.6l-2.6,1.1l-0.3,2.7
			l1.2,3l-0.6,3.5l-2.5,0.2l2,1.3l0.1,2.1l-0.7,1.4l3.2,0.5l0.1,2.4l1.6,0.8l-1,1.5l0.6,2.7l2.2,1l1.3-1l2,3.5l-0.8,4.9l-1.8,0.8
			l-1.7,2.1l-0.1,2.8l3.7,4.7l-1.1,3.1l-1.4,1.4l0.4,2.7l1.7-0.4l0.7,0.6l-2,2.6l0.1,2.9l2,1.3l1.7,6l1.8,2l-0.8,2.4l1,1.8l-2.6,2.1
			l2.1,2.1l-1.2,1.3l0.6,1l-0.5,3.9l1.5,0.3l2.3,2.8h-2.5l-0.3,1.1l2.2,1.4l-0.3,1.5l1.8-0.3l0.8,3.1l2.7,2.8l0.3,0.5l-0.9,2.2
			l0.4,1.9l0.4,0.4l1.8-1.3l0.7,0.6l-0.1,1l-4.9,4.9l0.7,3.1l2.8,1l-1.6,0.1l2.1,3.7v0.5l0.6,7.4l-0.6-0.8l-0.5,2.1l-0.4,2.1
			l1.9,3.4l0.3,5.1l-0.4,0.8l5.1,1.9l1.4-0.9l0.9-3.5l0.6-3.8l1.5-3.6l-5.3-0.5l-1.3-3.3l0.6-2.3l2.4-2.2l-1.6-4.5l0.7-1.5l1.8-0.8
			l-1.8,2.4l0.9,1.1l2.3,0.3l1.7,2.2l3.8-5.5l-0.8-1.7l-2-1.3l-0.9-2.9l-0.3-1.2l0.9-0.5l-0.5-1.4l3.2-1.4l-1.8-3.9l1.8-1.7
			l-0.5-1.4l0.5-1.6l0.5-2.4l1.3-1.2l-1,1.6l-0.4,4.4l5.4,0.4l0.2-1.3l-1.1-2.1l1.6,1.5l-0.4,2.2l1.6,1.8l0.2-1.5l1.2-0.8l0.2-1.1
			l1-1.5l-1.5-0.6l1-0.9l0.2-0.2l0.8-0.7l1.2,0.1l0.2,0.6l0.8-0.7l2.6,1.1l1.4-2.1l-0.8-1l-1.2-1.5l1-1.6l-2-1.5l0.4-1.1l-1.7-0.3
			v-2.3l-1.7,0.2l0.3-1.9l-1-2.7l1.2-3.9l-1.4,0.5l-0.9-1.3l-8.2,1.1l0.2-1.5l2.5-0.8l-1.6-1.2l5.5-2.8l0.1,1.4l2.2,1l-0.9,1.5
			l0.2,0.9l0.9-0.6l2.9,0.9l0.6-0.9l2.4-0.1v-1.7l-1.1-2.5V424l1.4-2.8l-3-3.7l-0.6-2.4l1.9-1.1l0.6-2.1l0.3-0.4l0.3,0.4l0.8,2
			l-1,2.9l4.2-3.5v-2.2l1.6,0.3l1.2-0.7l3.2,2.2l0.6,1.3l0.3,0.5l0.3,0.3l3.9,5.9l2.1,8.1l1.7-3.7l2.1-0.9l-0.4-1.7l0.5-2.1l1.9,0.6
			l0.3,0.1l2.2-2.3l0.8,0.4l-0.8,1.1l0.3,0.4l2.8-0.9l3.8,2.2l1.5,1.2l1.5,0.6l0.1,1.2l1.4,1.5l3.6,0.1l3.7,4.9l0.1,1.2l3-1.8
			l2.2-0.5l0.8-1.2l-1.1-1.2L178.8,428.8L178.8,428.8z M132.5,413.6l-1.7,4.4l-0.7-1l-0.6-2.1l1.7-0.8l0.6-2.1L132.5,413.6z
			 M155.3,494l3.7,3l-0.2,2.1l-2.8,1.7h-1.6l-0.5-0.6l-0.9,0.3l-2.5-0.8l0.8-2.2l-0.4-1.5l-5.6-5.3l0.2-0.6l-0.9-1.6l2.6-6l1.2-1.1
			l1.8-0.1l1.4,0.3l2.3,3.4l-1.9,2.8l0.1,2.1L155.3,494L155.3,494z M175.5,432l-3.8-4.6l-3.5-0.3l-1.9-2.7l-2.4-1.9l-3.6-2.1l-2.8,1
			l-0.6-1l-1.4,1l-1.9-0.3l-0.3,1.1l0.3,2.2l-2.2,1.2l-2.3,4.2l2.6,5.2l1.1,5.7l-0.6,3l-3.3,4.8l0.5,2.3l-0.9,2.7l-1.2,1.1l-1.9,0.5
			l-0.2,0.8l4.9,7.5l-1,4.1L147,471l-2.4,9.2l1.9,2h0.7l0.7-1l0.5,0.2l3.5,0.1l0.3,0.3l2.7,4.3l1.1-0.5l0.8-1.4l0.9-3.4l-0.9-3.2
			l2.1-4.6l-1.9-0.9l-0.6-1.1l0.9-1.5h0.5l1.7-0.8l0.2-3l0.1-2.4l-1.8-4.8l-0.2-2.2l0.5,0.3l1.4-0.7l0.7,1l-0.4,0.9l-1.5,0.1
			l0.2,1.3l1.6,3.7l2.8-0.5l1.4,0.5l1.2,2l0.4,2l2.5,2.1l0.5-0.3l1.3,0.9l2.3,0.2l2.9-3.3l0.8-2.7l-0.8-6.7l-1.4-2l-1.9-1l-0.5-1.9
			l1.3-5.5l3.7-7.1v-1.7l-2.1-3.2L175.5,432L175.5,432z M132,445.1l1.1-1.8l-0.2-2l3.2,3.4l2,4.2l-1.6,1.9l-1,0.3l-2.9,1.5l-0.4-0.8
			l1.6-3.3l-0.6-1.5L132,445.1L132,445.1z M121.6,454.6l1,2.6l-3.9,3.9l-0.8,1.4l0.1,2.2l-1,1.1l-3.5,0.5l-0.9-2.8l1.8-0.7l-1.3-1.2
			l3-1.5l-1.8-3.9l1.9-1.8L121.6,454.6L121.6,454.6z M119.3,464.4l0.2,0.4l-1.5,2.3l3.3-0.8l0.8,1v1.3l-0.3,0.3l-1.5,1.1l3.3,6.7
			l2.2,2.3l-0.6-5.8l4.1-6l-3.4-2.4v-1.9l-1.3,0.8l-0.8-0.5l0.7-2.3l-0.2-2.9l-0.7-0.3l-3.3,3.2
			C120.4,460.9,119.3,464.4,119.3,464.4L119.3,464.4z M139.5,473.1l-1.4-1.9l3.5-2.7l0.4,0.6l-0.4,1.4L139.5,473.1z M148.4,500.3
			l1.9,3.9l-1.7,0.8l-1.9-0.1l-1.3-1l-2-4.5l0.5-0.5l1,0.7l-0.4-2l0.5-0.6l-1.8-3l1-2.8l5.9,5l-0.1,2.4l-1.3,1L148.4,500.3
			L148.4,500.3z M141.4,481.1l-0.1,1.6l0.1,0.4l-0.6,2.1l-4.9-0.1l0.9-1.5l-0.1-1.5l-2.1-1l-1.5-2l1.6-2.1l-0.7-6.1l0.9-0.9l2.2,1.6
			l0.6,0.1l3.1,7.8l0.1,0.3L141.4,481.1L141.4,481.1z M126.2,492.9l-1.3,1.6l-0.1,2.9l-2.1-4.3l-0.3-2.2l5.2-3.3
			C127.6,487.8,126.2,492.9,126.2,492.9L126.2,492.9z M136.2,493.2l-0.2-1.5l-2.7-0.3L133,491h2.4l0.7-0.6l0.3-3.3l1.2-1.3l-2.3-0.3
			l-0.2-0.9l1.1-1.8l-2.6-1.4l-1.1-2.1l0.7-1.6l0.8-0.6l-0.7-5.8l2.1-2.6l0.1-0.1l3.3-1.5l-2.5-3.1l0.4-2.3l-2.4-2l-2.4,0.9
			l-0.3,2.8l-2.3,1l0.7,3.7l-3.6,5.5l1,6.7l1.6,3.3l0.2,4.6l-3.2,7.4l0.7,0.9l0.5,4.9l1.4,1.6l2.2,1.2l1.9-0.7l0.6-1.5l1.8-1.3
			l0.2-1.4l0.7,0.5l1.9-2.8l-0.1-1.8L136.2,493.2L136.2,493.2z"/>
		<path id="Rajshahi" class="st0" d="M154.6,166.1l1.1,5.1l0,0l0.2,0.6l0,0l1.4,2.7l0,0v1.1l0,0l-0.5,2.4l1.1,1.8l0,0l-0.2,0.1h-0.4
			l-0.6,0.4l0,0l-1.1,0.7l0,0v0.6l0,0l2.1,5.5l2,2.1l2.5,1.3l1.1-0.1l0,0l0.3,0.6l0,0l-1.5,0.2l-0.8,1.1l0,0l-0.1,0.8l0,0l1.3,1l0,0
			l0.3,0.1l0,0l0.6-1.1l1.5,1.2l1.2-1.1l0.9,0.9l0.1,2.1l0.6,0.4l0,0l0.2,0.4l0,0l-0.4,1l0,0l-1,0.6l0,0l1.6,1.8v1.4l0,0l0.5,0.4
			l0,0v1.2l-1.2,0.8v4.1l-1.9,0.9l0,0v0.6l0,0l1.4,4.4l0,0l-0.2,0.4l0,0L166,215l0,0l-0.2,0.3l0,0v0.9l0,0l-0.1,0.3l0,0l-2.2,1
			l-0.1,1.7l0,0l-0.2,0.2l0,0l-0.4-0.2l0,0l-0.6,0.3l0.4,0.6l0,0l0.8,0.3l0,0l0.4,0.1l0,0l0.4,1.3l-0.9,1.9l0,0l0.1,0.3l0,0l0.7-0.3
			l0,0l0.1,0.2l0,0l-1.5,1.1l-0.1,1.2l-1.6,1l0,0l0.6,1l0,0l0.8,3.1l0,0l0.6,0.2l0,0l1.2-0.3l0.7,3.5l-1.6,2.7l1.9,1.9l0,0l0.2,0.5
			l0,0v1.8l1.1,1.9l0,0l0.1,0.6l0,0l-0.6,4l0,0l0.1,0.8l0,0l1.4,6.5l0,0l-0.1,0.2l0,0l-1.2,0.3l0,0l-0.3,0.4l0,0l0.4,0.7l0,0
			l0.3,0.2l0,0l1.6-0.2l0.4,1.3l1.1,0.7l-0.3,2.9l0.6,3.5l-0.9,1.6l-4,3.3h-0.4l-1-0.2l0,0l-0.6,0.1l0,0l-4.3,3.3L158,280l0,0
			l0.2,0.3h0.7l0.4,0.6l0,0l0.1,2l0,0l0.1,0.4l0,0l-0.7,3l0,0l0.1,0.2l0,0l0.7-1.3l2.7,4.9l0,0l-1,0.5l0,0l-1.1,0.3l-1.1,1.5l0,0
			l-1.2-0.1l0,0l-1.3,0.5l0,0l-1,0.1l0,0l-4.1-0.2l0,0l-0.3,0.3l0,0l-2.6-0.2l-1.3,0.8h-0.5l-1.3-0.1l0,0l-0.6-0.9l0,0l-3-0.2l0,0
			l-1.3-0.8l0,0l-11.9-9.2l0,0l-1.1,0.3l0,0l-3.8-2.7l0,0l-0.4-0.5l0,0l-1.1-1.8l-5.2-2.1l0,0l-0.8-0.2l-0.7,1.2l0,0l-0.8,2.6
			l-2,1.3l0,0l-0.9-0.4l0,0l-1.3-4h-0.3l-0.9,1.6l-1,0.5l-3.9-1.4h-2.3l-0.3-1.2l0,0l-3-1l-1.8-6l0,0l-0.3-0.4l0,0l-2.1-6.5l0,0
			l-0.6-1l0,0l-5.2-0.5l0,0l-0.8-0.2l0,0l-0.8-0.4l-1.7,0.8l0.2-1.1h-0.1l-0.9,0.3l0,0l-0.2,0.2l0,0l0.2,1.1l0,0l-0.1,0.1l0,0
			l-3,1.2h-0.2l0.7-1.3l0,0l0.1-0.4l0,0L81,261l0,0l-0.4-0.1l0,0l-7.1-2.5l-2.9-3l-2.2-4.1l0.4-5.9l-1.4-3l-1.6-1.2l-3-0.6l-4.1,0.9
			l-0.4-0.9l-1.7-0.2l-0.4,0.6l-1.4-0.4l-0.3-1.1l-1.5-0.2l-1.4,3.2l-2.5-4.9l-2-0.1l-5.5-3.3l-2-0.5l-3.3,1l-2.3-0.1l-3.2-1.1
			l-5.4-5.7l-7.1-2.2l-2.3-3.1l-2.6-1.6l-4.1-4.4l-5.4-9.1l-3.2-2.9l5.1-5.6l0.8-2L6,196l0.7-1l-0.4-1l1-0.1l0.8-1.2l1.5,0.3
			l0.1-2.6l1.4-1.8l1.2-1l1.2-1.9l1.6-0.6l-0.2-1.2v-1.2l-0.7-0.7l1.5-0.4l-2.8-2.8l-0.1-1.9l1.4,0.3l2.4-2.1l4.5-0.6l3.3,4.2
			l1.3,2.3l0.2,0.9l2,0.2l0.4,1.5l1.7-1.1l2.4-1.1l-2-1.9l0.9-0.7l0.5-2.2l2-1.3l2,1.4l1.6-0.8l-0.7-1.7l0.4-0.7L39,173l-0.4-2
			l1-1.4h1.1l1.6-3l-1.6-1.5l1.5-3l-0.9-4.8l1.9-1.6l-0.4-2.3l-1.3-1.2l0.1-2L44,150l0.6-1.6l2.1,0.2l0.1,0.6l3.4,0.5l-0.1,1.1
			l2.2-0.4l-0.1,1.5l0.7,0.2l1.3-0.2l1.1-1.5l2.4-1.3l5,0.6l1.1-1l2.5,0.1l2.2,0.9l0.3,1.3l1.6,1.1l2-1.4l0.4,1.1l2.4,0.8l1-0.3
			l1.6-3.1l1.3-0.5l0.8,1.1h1.2l1,2.1l1.9-0.4l1.4,0.5l0.2,1l0.8,0.3l0.6-1.8l1.7,0.1l-0.1-1.7l-1-0.2l-0.1-1.6l1.3,0.5l0.9-0.6
			l-0.7-2.2l0.3-1.5l2.3-1.6l0,0l3.3,3.1h7.2l0.9,1.5l5.8,1l4.5-0.5v1.5l-1.3,2l0.4,2l1.3,3l3.2,2l1.3,3.5l2.7,1l2.7-1.5h2.7
			l3.1,3.9l2.3,1.5h0.9l0.9-1.5h2.7l8.1,4.4h1.8l4.1-2.5L154.6,166.1L154.6,166.1z"/>
		<path id="Rangpur" class="st0" d="M154.6,166.1l-4.6,0.5l-4,2.5h-1.8l-8.1-4.4h-2.7l-0.9,1.5h-0.9l-2.2-1.5l-3.2-3.9h-2.7
			l-2.7,1.5l-2.7-1l-1.3-3.5l-3.1-2l-1.3-3l-0.4-2l1.3-2v-1.5l-4.5,0.5l-5.8-1l-0.9-1.5h-7.2l-3.3-3.1l0,0l0.8-0.8l1.9,0.4l0.4-2.1
			h-2l-0.6-1.1l-0.7,0.4l-1.8-0.6l-1.1,0.6l-0.7-1l-1.1,0.8l-1.8-3.3l-1.4,0.2l-0.2,1.1l-1.5-1.6l-0.1-1l-2.6-1.5l0.1-3.1l-2.6-1.7
			l1.3-0.5l0.6-1.2l-0.8-1.6l1.3-1.3l-0.3-1.7L78,120l-1.6-0.2l-0.4-3.4l-1.2-0.2l-1.4,0.9l-1.8-0.9v1.3l0.9,0.9l-0.3,0.7l-2.4,0.7
			l-0.4-1.7l-2.6,0.5l-0.1,1.8l-1.1,1l-3.2-0.1l-0.5-0.9l-0.9,0.3l-0.2-1.8h-2.2l-1.4-1.8l-1.1,0.9l-1.9-0.2l-2.3-1.3l-1,1.1
			l-0.2-2.5l-0.7-0.9l-1,0.7l-1.2-0.9l-1.3-1.6l0.3-2.4h-2.6l-1.3-1.6l-1.1-0.1l0.4-2.4l0.7-0.8l-0.1-3.4l-4.7-0.9L38,99.4l-1.1,0.1
			l-0.2-1l-1.6-0.4l0.3-1.8l-1.6-0.6l-0.1-0.8l-3.2-1l-0.6-1.6l-4.5-3l0.4-1.8l-0.5-1.2l-1,0.2l-1,0.1l-0.4,0.7L22.1,87l-0.5,1.2
			l-1.4-0.3l-1,1.3l-1.3-1.4h-0.8L16,89.3l-0.9-0.2l-1.2,1.4L13.2,90L13,88.4l-2.3-0.3l0.3-1.4l-0.9-0.3l-0.6-1.3l0.7-1.1l-0.8-0.7
			l1.1-1L9.3,79l0.5-0.5L8.3,78l-0.2-0.9l-0.3-1.8L8.5,74l1.7-0.5l0.5-2.4l1-0.9l-0.4-1.1l2-2.4L13,65.5l4-1.3l-1.3-0.9l0.5-0.6
			l0.3-0.8l-0.2-1.1l0.8-0.4L17,59.5L15.3,58l-0.6-1.2l1.8-3l-0.4-0.3l0.4-2l1.6-0.5l1-0.8l2-1l0.9-0.8l-0.3-0.8l1.4-0.7l0.4,0.5
			l2.1-0.3l1.6-1.5l0.6,0.5l1.9-0.6l1.2-1.3l1.8-0.6l0.8-2.1L32.7,41v-3.8l3.5-3.3l2.5-0.2l-0.9-1.5l0.7-0.6h2.2l1.9-3.8l0.4,1.5
			l2.3,1.1l0.3-1.1h1.7L47,30.6l1.8-1.2L48,29v-0.9l0.4-1.6l-0.7,0.1L47,25.4l0.4-0.8l-1.3-0.3l-0.2-0.8l0.4-1v-0.9l-1.8-1.9
			l0.3-0.9l-4.3-0.5h-1.4l-1.7-2.1l-1.1,1l-2.2-0.8L33,20.7l-0.6-2.1L31,17.3v-1.6l1.7-1.9l0.8-3.7l1.1-1.3l-0.3-1.5l0.7-2l1.2-1
			l-0.1-0.8l2.2-2.4l1,6.9l1.1,2.3l1.4,1.1l1.1-1.2l2.2,0.6l0.7,2.8l2.9,0.8l0.2,2.5l3.2-0.8l-0.8,1.2l1,0.5l-0.6,1.6l3.7,0.8
			l-0.2-2.3l2.4,0.1l0.4,3.7l2.3,0.9l-0.3,1l1.4,0.1l0.9,1l1.6-0.4v1l0.2,1.5l-0.5,0.7l1.4,1.8v1.9l0.7,1l2.9-2.1l1.3,0.2l1.2,2
			l-0.4,1.5l0.4,2l3.5-1.3l2.1,1.3L76.1,38l0.3,2.1l1.6,0.8l-0.3,0.6l1.3,1.2l3.6-0.5l-1.6-2v-2l1.9-1.5l4.4,0.3l2.2,4.2l1.1,0.7
			l6.3-0.9l1.7,0.7l0.5-1.5l0.8,0.3l-0.7-2.4l0.7-0.3l-0.4-1.3l-1.1-0.3l-0.1,0.9l-1.8,0.2l-0.9-0.7l-0.7-1.2l-1.1,1.1l-0.1-0.9
			l-1.1-0.3v-1.6l0.7-0.5l0.7-0.4L92.6,32l-0.1-1.6l-2.2-0.2L90,32.5l-0.5-1.1l-0.4-0.6l-0.2-1.1l-1.6-0.9l-0.8,0.5l-0.6-0.8
			l-0.1-0.6l-0.3-0.8l0.8-0.6l0.1-1.2L85,24.2l2.3-0.2l-0.4-1.5l0.2-0.9l1.7,0.8l0.6-1.1L89,20l1-1.2l2.4,1.3L92,21.2l1,1.8l0.6-0.3
			h0.6l0.6,1.1l1.3-0.1l1.1,1.9l0.8-0.5l3.1,0.8l1-0.5l0.8,0.6l-0.5,2.4l-0.9,0.5l1.5,0.4l0.4,2.5l-0.2,0.9l1.6,1.1l2.1-0.2
			l-0.1,1.1l-0.3,1.1l-0.9,1.2l-1.7-3l-0.3,1l0.6,1.6l-0.6,0.9l2.1,1.6l-0.2,1.4l1.7,1.9v1.9l0.8,0.9l-1.4,3l2,2l-0.8,0.3l0.6,1.7
			l1.3,1.4l2.3,0.7l1-0.5l2,0.4l2.6,3.2l1.4,0.1l-1,2.9l1.5,0.3l0.5,1.2h2l2.2,1.3l2.3,2.7l4.3,0.4l-0.1-1.4l1.4-1.1l0.2-0.9
			l1.5-0.6l0.9,1l-0.6,2.1l0.5,0.7l3.7,1.2l1.4-1l1.4,0.6l1.2-0.8l2,0.3l1.1,0.6l-1.2,1.1l0.2,1.9l1.3,0.6l1.1-1.4l0.8-0.1l1.2,0.4
			l0.1-1.9l-0.8-0.9l0.5-2.2l0.1-1.3l0.6-0.8l1.9-0.9l1.4-0.9l2-0.2l-1.5-1.5l0.6-1.3l-1-1.7l-0.7,0.7l-0.5,0.5l-0.8,0.7l-1.4-1.3
			l0.1-0.7l0.3-0.6l1.6,0.7l1.3-1.3l-0.4-0.9l-1.3,0.1l-0.6,1.1l-1.3-4.2l0.5-0.4l1.3,0.7l-0.1-0.8l0.1-1l0.5-0.8l0.5,0.7h0.9
			l1.7,0.7l0.7-1.5h-1.7l-1.1-0.8l0.4-0.9l1.2,1.1l0.5-0.6l-1.5-2.1l0.1-1.8l1.8,1h1.5l0.8-1.8l0.7,0.9l0.3,0.6l0.1,1.1l-1.3,0.3
			l-0.3,0.7l1,0.4l0.2,1.7l1.4,1l-1.6,0.4l-0.3,0.8l2.5,0.8l0.7-1.5l0.4,1.3l2.6-0.1l1.9,2.9l-1.1,1.9l2.6,0.4l-0.1,2.3l1.2-0.1
			l-0.3,0.9l0.8,1.8l-1.4,0.3l0.4,0.9l-0.2,0.7l0.5,0.6l0.8-0.6l0.8-0.3l1.2,3.4l-0.8,1.7l0.5,0.8l1.6,0.4l-0.5-1.7l0.5-1.3l0.9,0.8
			l0.4,1.6l2.1,1.2l-0.3,0.7l-2.9,0.6l0.9,1.8l-1.7-0.5l-0.5,0.8l1.7,0.8l2.9-0.7l1.2,0.3l-0.8,2.2l-4.1,5.1l0.2,1.4l-0.9,0.3v1.6
			l-1.5,2.1l1.4,1l1.3,4.1l-0.9,4.5l0.6,1.3l1.7,0.5l-0.3,2l2.1,3.3l1.1,3.6l-1.4,6.3l0.2,1.8l-1.5,0.8l0.6,2.5l-0.8,2.3l0.1,2.7
			l-2.5,5.1l-5.4-1.7l0,0l0.1,0.1l0,0l0.4,1.3l0.9,0.6l-0.3,2.2l0,0l-1.6,0.9h-1.1l-0.3,0.1l0,0l-2.4,2.5l3,7.3l-0.6,2.5l0,0v0.3
			l0,0l0.6,1.5l-1,1.2l0,0l-0.2,0.1l0,0l-3.8,0.4l-2.4,4.5v1.6L155,156l0.1,3.1l0,0l-0.1,0.3l0,0l-1.1,2.1l0.7,1.1l0,0l0.3,0.2l0,0
			l0.3-0.2l0,0l0.1,0.2l0,0l0.2,2.5L154.6,166.1z"/>
		<path id="Sylhet" class="st0" d="M307.7,150.2l0.9,0.5l-0.3,0.5l2.9,0.4l1.5,1l1.6,0.2l0.8-0.6l0.7,0.9l2.6,0.3l1.5-0.6l1,1.4
			l1.5,0.7l2.4-0.1l0.3,1.7l2.7-0.2l0.9-1l4.3-0.4l0.8-1l1.1-0.2l0.1-1.3l3.5-0.3l0.1,0.6l-1.5,1.1l0.2,1.4l1.9,0.1l0.2,1.7l1.5,0.6
			l3.2-1.6l1.6-0.1l1.1-2l3.4,0.8l0.8-2.9l2.7,1.2l5-1.5l3.1,0.5l5.1-0.9l6.2,1.2l2.4-1.5l1.5,0.8l4.1-0.7l6.1,2.8l0.5,0.4l-0.5,1.4
			l2.6,0.9l1.9,1.5l1.5-0.7l2.7,0.9l-1.9,0.3l2,2l7.6,2.5l1.4-1l1.7,0.4l0.8,1.1l-0.9,1.6l2.1,0.1l0.5,0.7l5.4,1.4l-0.9,3.6l0.5,2.4
			l1.6,0.6l1.4-0.9l1.2,2l-1.4-0.2l-0.6,0.6l1.5,1.1h1l0.9-1.2l0.2,3.3l1.3,1.9l-0.9,0.4l0.5,1.8l-0.8,0.9l-2,0.3l-2-0.7l-0.2,1.5
			l-1.3,0.4l-0.1,0.8l-2.2,0.1l-1.3-0.4l-1-1.2l-1.3-0.5l-0.5-1l-0.9,0.1l-1.9-1.3l-1.5-0.2l-2-2.6l-1.4,1.6l-1.5-0.1l-0.9-0.1
			l-0.3-0.7l-0.9,0.4l-0.4,1.1l0.9,2l-0.9,0.9l0.3,2.2l1.2,0.8l2.1,1.4l0.5,3.4l0.8,0.6l-0.6,2.1l0.7,0.7l-0.9,1.9l1.2,0.7l-3.3,4.9
			l-1.1,3.2l-1.4,7.9l-0.5,8.2l-4.9-2.4l-0.5-1.1l-1.6,1l0.5,1.2l-0.9,1.2l1,3.2l-0.5,0.8l0.9,1.4l-0.4,0.8l0.9,0.9l-0.6,0.9
			l-2.6-0.2l-1.5,3.8l-3.3,1.4l-7.4-0.9l-1-1l-1.3,0.7l-1.1-0.3l-0.9,0.7l3.2,4.4l-0.3,1.9l-2-1.1v-1.4l-1.6-1.1l-3.4,2.1l2,7
			l-2.8,9.8l-0.2,3l-2,0.5l-0.9-1.1l-0.6-2.7l-2.8-2.4l0.8-0.5l-0.1-1.2l-0.6-0.8l-2.5,1.3l-0.7-1.1l-1.5-0.2l-4.5-2.7l1.8,10.6
			l-2.9,0.1l-2-1l-0.7-1.1l-1,0.3l-0.7-1l-1.6-4.1l-0.1-2.1l-1.8,1.6l1.1,2.7l-0.4,1.2l-1,0.1v2l-1,1.6l0.6,2.4l-0.8,1.4l-2.1,0.8
			l-1.1-0.4l-0.6,0.4l0.2,1.5l-0.8,0.3l-4,0.1l-4.6-1.3l-0.5-0.9h-4.4l-3.2-1.3l-3,0.2l-0.1,2.9l1.8,3l-0.5,2.3l-1.5,2.2l0.4,3.2
			l-6.7-2.2l0,0l-0.9-0.5l0.1-1.6l1,0.1l0.5-2.4l-0.9-2l-1.5-0.2l0.3-3.6l-1.2,0.3l-0.9-0.7l0.3-1.3l1.9-0.7l-1.9-0.7v-1.6l-0.9-0.2
			l1.3-2l0.3-1.8l2.3-1.1l1,0.3l-0.2-1.6l-2.9,0.9l-0.7-0.6l0.8-1.8l1.1,0.6l0.2-1.2l0.8,0.3l0.9-1.1h0.8v-3l-1.3-0.6l-1,0.5
			l-1.3,1.7l-0.3,1.6l0.5,0.6l-1.1,0.2l-7.4-1.4l-2-2.6l0,0l1.9-2.7l-0.7-0.4l-2.8,1l1.2-3.7l5.9,0.3l0.2-1.5l-2.1-3.1l0.4-0.9
			l1.3,0.3l2.1-1.5l-1.6-2.8l-1,0.2l0.2-0.7l-0.2-1.4l2.1,0.1l0.3-0.8l-1.3-4.8l-1.4-0.1l0.8,1.3l-1.6-0.6l-1.6,2.3l-0.2-1.5l1-0.5
			l-2.5-0.7l-1,0.8l-0.6-0.3l2-2.4l0.8,1.4l0.7-0.6l2.5-3l1.9-4.6l-3.4-1.8l0.6-0.9l-0.3-1.2l-2.2-0.9l-0.2-1.5l1.8,0.9v-0.9h0.9
			l0.2-1.7h1.4l0.8-0.9l-1-1.5l1.8-0.3l0.1-1.6l-1.9-0.8l0.8-1l-0.5-1.6l-1.5,1.6l-2.5-1.6l-1.7,0.9l-0.4-0.7h-1.6l1-0.8l-0.4-1.4
			l0.7,0.4l0.4-0.7l-0.7,0.1v-0.7l-1.2-0.1l-0.2-0.6l0.9-0.6l1.4,0.3l-0.1-0.9l1.3-0.9l-1.4-0.8l1.4-2.3l-0.2-1.9l-1.5-0.9l-1,1.4
			l0.3,0.8l-1.3,1.1l1.3,1.5l-1.6-0.1l-1.5-2.4l0.6-2l0.8-0.6l-0.4-0.8h-1l-1.2-3.8l-2.1-1.6l-3.5-0.5l-1.3,2.3l-0.9-0.2l-0.4-1.1
			l-1.3,0.4L280,180l-3.4-0.1l-0.1-2.6l-0.6,0.1l2-0.9l0.4-1.3l-1-1.4l-1.6-0.4l0.3-3l-1.2-1.7l0.5-0.9l2.4-1l-2.9-0.9l-0.2-3.4
			l1.4-0.3l1.2,1.1l1.5-0.5l-0.3-1.9l-2-1.8l0.6-1.1l-0.3-2.9l1.6-0.7l-0.5-1.4l0,0l10.7-2.9l4.6,0.4l6.7-0.7l4.5,0.5l2.1-1
			L307.7,150.2z"/>
		<g>
			<path class="st1" d="M90.6,101.7l-1.7-2.9h-0.4v2.9h-1.9v-7.8h3.2c0.5,0,1.1,0.1,1.6,0.3c0.4,0.2,0.8,0.5,1,0.9s0.3,0.8,0.3,1.3
				s-0.2,1-0.5,1.4s-0.8,0.7-1.4,0.8l1.8,3.1L90.6,101.7z M88.4,97.5h1.2c0.3,0,0.6-0.1,0.8-0.3c0.2-0.2,0.3-0.5,0.3-0.7
				c0-0.3-0.1-0.5-0.3-0.7c-0.2-0.2-0.5-0.3-0.8-0.3h-1.2V97.5z"/>
			<path class="st1" d="M97.1,95.8c0.3,0.2,0.6,0.5,0.8,0.9v-1.1h1.9v6.1h-1.9v-1.1c-0.2,0.4-0.4,0.7-0.8,0.9
				c-0.4,0.2-0.8,0.3-1.2,0.3c-0.5,0-1-0.1-1.4-0.4s-0.8-0.6-1-1.1s-0.4-1.1-0.3-1.7c0-0.6,0.1-1.2,0.3-1.7c0.2-0.5,0.6-0.8,1-1.1
				c0.4-0.3,0.9-0.4,1.4-0.4C96.3,95.5,96.7,95.6,97.1,95.8z M95.5,97.5c-0.3,0.3-0.4,0.7-0.4,1.1s0.1,0.8,0.4,1.1
				c0.3,0.3,0.6,0.4,1,0.4s0.7-0.1,1-0.4c0.5-0.6,0.5-1.5,0-2.2c-0.3-0.3-0.6-0.4-1-0.4S95.8,97.2,95.5,97.5z"/>
			<path class="st1" d="M106.6,96.2c0.4,0.5,0.7,1.2,0.6,1.9v3.6h-1.9v-3.3c0-0.4-0.1-0.7-0.3-1c-0.2-0.2-0.5-0.4-0.9-0.3
				c-0.3,0-0.7,0.1-0.9,0.4c-0.2,0.3-0.4,0.6-0.3,1v3.3H101v-6.1h1.9v1.1c0.2-0.4,0.4-0.7,0.8-0.9c0.4-0.2,0.8-0.3,1.2-0.3
				C105.5,95.5,106.2,95.7,106.6,96.2z"/>
			<path class="st1" d="M112,95.8c0.3,0.2,0.6,0.5,0.8,0.9v-1.1h1.9v6.1c0,0.5-0.1,1.1-0.3,1.5c-0.2,0.5-0.6,0.8-1,1.1
				c-0.5,0.3-1.1,0.4-1.7,0.4c-0.8,0-1.6-0.2-2.2-0.7c-0.6-0.4-0.9-1.1-1-1.8h1.9c0.1,0.2,0.2,0.4,0.4,0.6c0.2,0.2,0.5,0.2,0.8,0.2
				s0.7-0.1,0.9-0.3c0.3-0.3,0.4-0.7,0.4-1.1v-1.1c-0.2,0.4-0.4,0.7-0.8,0.9c-0.4,0.2-0.8,0.3-1.2,0.3c-0.5,0-1-0.1-1.4-0.4
				s-0.7-0.7-0.9-1.1c-0.2-0.5-0.4-1.1-0.3-1.7c0-0.6,0.1-1.2,0.3-1.7c0.2-0.4,0.5-0.8,0.9-1.1c0.4-0.2,0.9-0.4,1.4-0.4
				C111.2,95.5,111.6,95.6,112,95.8z M110.4,97.5c-0.3,0.3-0.4,0.7-0.4,1.1s0.1,0.8,0.4,1.1c0.3,0.3,0.6,0.4,1,0.4s0.7-0.1,1-0.4
				c0.5-0.6,0.5-1.5,0-2.2c-0.3-0.3-0.6-0.4-1-0.4S110.7,97.2,110.4,97.5L110.4,97.5z"/>
			<path class="st1" d="M121.1,95.8c0.4,0.3,0.8,0.6,1,1.1s0.4,1.1,0.3,1.7c0,0.6-0.1,1.1-0.3,1.7c-0.2,0.5-0.6,0.8-1,1.1
				c-0.4,0.3-0.9,0.4-1.3,0.4s-0.8-0.1-1.2-0.3c-0.3-0.2-0.6-0.5-0.7-0.9v4H116v-9h1.9v1.1c0.2-0.4,0.4-0.7,0.7-0.9
				c0.4-0.2,0.8-0.3,1.2-0.3C120.2,95.5,120.7,95.6,121.1,95.8z M118.2,97.5c-0.5,0.6-0.5,1.5,0,2.2c0.3,0.3,0.6,0.4,1,0.4
				s0.7-0.1,1-0.4s0.4-0.7,0.4-1.1s-0.1-0.8-0.4-1.1c-0.3-0.3-0.6-0.4-1-0.4C118.8,97.1,118.4,97.3,118.2,97.5z"/>
			<path class="st1" d="M129.5,95.6v6.1h-1.9v-1.1c-0.2,0.4-0.5,0.7-0.8,0.9c-0.4,0.2-0.8,0.3-1.2,0.3c-0.6,0-1.3-0.2-1.7-0.7
				c-0.4-0.5-0.7-1.2-0.6-1.9v-3.6h1.9v3.3c0,0.4,0.1,0.7,0.3,1c0.5,0.5,1.3,0.5,1.8,0c0.2-0.3,0.3-0.6,0.3-1v-3.3
				C127.6,95.6,129.5,95.6,129.5,95.6z"/>
			<path class="st1" d="M133.6,95.8c0.4-0.2,0.8-0.3,1.2-0.3v2h-0.5c-0.4,0-0.8,0.1-1.2,0.3c-0.3,0.3-0.5,0.7-0.4,1.1v2.8h-1.9v-6.1
				h1.9v1.2C132.9,96.3,133.2,96,133.6,95.8z"/>
		</g>
		<g>
			<path class="st1" d="M348,396.6c0.7,0.5,1.1,1.3,1.3,2.1h-2c-0.1-0.3-0.4-0.6-0.7-0.8c-0.3-0.2-0.7-0.3-1.1-0.3
				c-0.5,0-1,0.2-1.3,0.6c-0.4,0.5-0.5,1-0.5,1.6s0.1,1.2,0.5,1.6c0.3,0.4,0.8,0.6,1.3,0.6c0.4,0,0.8-0.1,1.1-0.3
				c0.3-0.2,0.5-0.5,0.7-0.8h2c-0.2,0.8-0.6,1.6-1.3,2.1c-0.7,0.5-1.6,0.8-2.5,0.8c-0.7,0-1.4-0.2-2-0.5s-1-0.8-1.3-1.4
				c-0.6-1.3-0.6-2.8,0-4.1c0.3-0.6,0.8-1.1,1.3-1.4c0.6-0.3,1.3-0.5,2-0.5C346.4,395.8,347.3,396.1,348,396.6z"/>
			<path class="st1" d="M355.9,398.2c0.4,0.5,0.7,1.2,0.6,1.9v3.6h-1.9v-3.4c0-0.4-0.1-0.7-0.3-1c-0.2-0.2-0.5-0.4-0.9-0.4
				c-0.3,0-0.7,0.1-0.9,0.4c-0.2,0.3-0.3,0.6-0.3,1v3.3h-1.9v-8.1h1.9v3.1c0.2-0.4,0.4-0.7,0.8-0.9c0.4-0.2,0.8-0.3,1.2-0.3
				C354.9,397.4,355.5,397.7,355.9,398.2z"/>
			<path class="st1" d="M357.9,395.1c0.2-0.2,0.5-0.3,0.8-0.3s0.6,0.1,0.8,0.3c0.4,0.4,0.4,1,0,1.4c-0.2,0.2-0.5,0.3-0.8,0.3
				s-0.6-0.1-0.8-0.3C357.5,396.2,357.5,395.5,357.9,395.1z M359.6,397.6v6.1h-1.9v-6.1H359.6z"/>
			<path class="st1" d="M364.4,402.1v1.6h-0.9c-0.6,0-1.2-0.2-1.7-0.5c-0.4-0.5-0.7-1.1-0.6-1.8v-2.3h-0.8v-1.6h0.8V396h1.9v1.5h1.2
				v1.6h-1.2v2.3c0,0.2,0,0.4,0.1,0.5s0.3,0.2,0.5,0.1L364.4,402.1L364.4,402.1z"/>
			<path class="st1" d="M369,402.1v1.6h-0.9c-0.6,0-1.2-0.2-1.7-0.5c-0.4-0.5-0.7-1.1-0.6-1.8v-2.3H365v-1.6h0.8V396h1.9v1.5h1.3
				v1.6h-1.2v2.3c-0.1,0.3,0.1,0.6,0.4,0.6c0.1,0,0.2,0,0.2,0L369,402.1z"/>
			<path class="st1" d="M373.6,397.8c0.3,0.2,0.6,0.5,0.8,0.9v-1.1h1.9v6.1h-1.9v-1.1c-0.2,0.4-0.4,0.7-0.8,0.9
				c-0.4,0.2-0.8,0.3-1.2,0.3c-0.5,0-1-0.1-1.4-0.4s-0.7-0.6-1-1.1c-0.2-0.5-0.4-1.1-0.3-1.7c0-0.6,0.1-1.1,0.3-1.6
				c0.2-0.4,0.5-0.8,1-1.1c0.4-0.3,0.9-0.4,1.4-0.4C372.7,397.5,373.2,397.6,373.6,397.8z M372,399.5c-0.3,0.3-0.4,0.7-0.4,1.1
				s0.1,0.8,0.4,1.1c0.3,0.3,0.6,0.4,1,0.4s0.7-0.1,1-0.4s0.4-0.7,0.4-1.1s-0.1-0.8-0.4-1.1c-0.3-0.3-0.6-0.4-1-0.4
				S372.3,399.3,372,399.5z"/>
			<path class="st1" d="M381,397.8c0.3,0.2,0.6,0.5,0.7,0.9v-1.1h1.9v6.1c0,0.5-0.1,1.1-0.3,1.5c-0.2,0.5-0.6,0.8-1,1.1
				c-0.5,0.3-1.1,0.4-1.7,0.4c-0.8,0-1.6-0.2-2.2-0.7c-0.6-0.4-0.9-1.1-1-1.8h1.9c0.1,0.2,0.2,0.4,0.4,0.6c0.2,0.1,0.5,0.2,0.8,0.2
				s0.7-0.1,0.9-0.3c0.3-0.3,0.4-0.7,0.4-1.1v-1.1c-0.2,0.4-0.4,0.7-0.7,0.9c-0.4,0.2-0.8,0.3-1.2,0.3c-0.5,0-1-0.1-1.4-0.4
				s-0.7-0.6-1-1.1c-0.2-0.5-0.4-1.1-0.4-1.7s0.1-1.2,0.4-1.7c0.2-0.4,0.5-0.8,1-1.1c0.4-0.3,0.9-0.4,1.4-0.4
				C380.2,397.5,380.6,397.6,381,397.8z M379.4,399.6c-0.3,0.3-0.4,0.7-0.4,1.1s0.1,0.8,0.4,1.1c0.3,0.3,0.6,0.4,1,0.4
				s0.7-0.1,1-0.4s0.4-0.7,0.4-1.1s-0.1-0.8-0.4-1.1c-0.3-0.3-0.6-0.4-1-0.4C380,399.1,379.7,399.3,379.4,399.6L379.4,399.6z"/>
			<path class="st1" d="M389.4,397.9c0.5,0.2,0.9,0.6,1.1,1.1c0.5,1,0.5,2.3,0,3.4c-0.3,0.5-0.7,0.8-1.1,1.1c-1,0.5-2.2,0.5-3.3,0
				c-0.5-0.2-0.9-0.6-1.1-1.1c-0.6-1-0.6-2.3,0-3.4c0.3-0.5,0.7-0.8,1.1-1.1C387.2,397.4,388.4,397.4,389.4,397.9z M386.9,399.5
				c-0.5,0.7-0.5,1.6,0,2.3c0.5,0.5,1.3,0.5,1.8,0l0,0c0.5-0.7,0.5-1.6,0-2.3C388.2,399,387.5,399,386.9,399.5L386.9,399.5z"/>
			<path class="st1" d="M397.5,398.2c0.4,0.5,0.7,1.2,0.6,1.9v3.6h-1.9v-3.4c0-0.4-0.1-0.7-0.3-1c-0.5-0.5-1.3-0.5-1.8,0
				c-0.2,0.3-0.4,0.6-0.3,1v3.3H392v-6.1h1.9v1.1c0.2-0.4,0.4-0.7,0.8-0.9c0.4-0.2,0.8-0.3,1.2-0.3
				C396.5,397.4,397.1,397.7,397.5,398.2z"/>
			<path class="st1" d="M402.9,397.8c0.3,0.2,0.6,0.5,0.8,0.9v-1.1h1.9v6.1c0,0.5-0.1,1.1-0.3,1.5c-0.2,0.5-0.6,0.8-1,1.1
				c-0.5,0.3-1.1,0.4-1.7,0.4c-0.8,0-1.6-0.2-2.2-0.7c-0.6-0.4-0.9-1.1-1-1.8h1.9c0.1,0.2,0.2,0.4,0.4,0.6c0.2,0.1,0.5,0.2,0.8,0.2
				s0.7-0.1,0.9-0.3c0.3-0.3,0.4-0.7,0.4-1.1v-1.1c-0.2,0.4-0.4,0.7-0.8,0.9c-0.4,0.2-0.8,0.3-1.2,0.3c-0.5,0-1-0.1-1.4-0.4
				s-0.7-0.6-1-1.1c-0.2-0.5-0.4-1.1-0.3-1.7c0-0.6,0.1-1.2,0.3-1.7c0.2-0.4,0.5-0.8,1-1.1c0.4-0.3,0.9-0.4,1.4-0.4
				C402.2,397.5,402.6,397.6,402.9,397.8z M401.4,399.6c-0.3,0.3-0.4,0.7-0.4,1.1s0.1,0.8,0.4,1.1c0.3,0.3,0.6,0.4,1,0.4
				s0.7-0.1,1-0.4s0.4-0.7,0.4-1.1s-0.1-0.8-0.4-1.1c-0.3-0.3-0.6-0.4-1-0.4C402,399.1,401.6,399.3,401.4,399.6L401.4,399.6z"/>
		</g>
		<g>
			<path class="st1" d="M332.5,196.6c-0.2,0.4-0.5,0.6-0.9,0.8c-0.5,0.2-1,0.3-1.5,0.3c-0.8,0-1.5-0.2-2.2-0.6
				c-0.6-0.4-0.9-1.1-0.9-1.8h2c0,0.3,0.1,0.5,0.3,0.7c0.2,0.2,0.4,0.3,0.7,0.3c0.2,0,0.4-0.1,0.6-0.2c0.1-0.1,0.2-0.3,0.2-0.5
				s-0.1-0.4-0.2-0.5s-0.3-0.2-0.5-0.3s-0.5-0.2-0.8-0.3c-0.4-0.1-0.8-0.3-1.2-0.5c-0.3-0.2-0.6-0.4-0.8-0.7
				c-0.2-0.4-0.3-0.8-0.3-1.2s0.1-0.8,0.4-1.2s0.6-0.6,1-0.8c0.5-0.2,0.9-0.3,1.4-0.3c0.7,0,1.5,0.2,2.1,0.6c0.5,0.4,0.8,1,0.9,1.7
				h-2c0-0.2-0.1-0.4-0.3-0.6c-0.2-0.2-0.4-0.2-0.6-0.2s-0.4,0.1-0.5,0.2c-0.1,0.1-0.2,0.3-0.2,0.5s0.1,0.3,0.2,0.5
				c0.1,0.1,0.3,0.2,0.5,0.3l0.8,0.3c0.4,0.1,0.8,0.3,1.2,0.5c0.3,0.2,0.6,0.4,0.8,0.7c0.2,0.4,0.4,0.8,0.3,1.2
				C332.9,195.8,332.8,196.2,332.5,196.6z"/>
			<path class="st1" d="M335.3,191.5l1.5,3.8l1.4-3.8h2.1l-3.8,9.1h-2.1l1.4-3.1l-2.6-5.9h2.1V191.5z"/>
			<path class="st1" d="M342.8,189.5v8.1h-1.9v-8.1H342.8z"/>
			<path class="st1" d="M349.6,192.1c0.4,0.5,0.7,1.2,0.6,1.9v3.6h-1.9v-3.4c0-0.4-0.1-0.7-0.3-1c-0.2-0.2-0.5-0.4-0.9-0.4
				c-0.3,0-0.7,0.1-0.9,0.4c-0.2,0.3-0.4,0.6-0.3,1v3.3H344v-8.1h1.9v3.1c0.2-0.4,0.4-0.7,0.8-0.9s0.8-0.3,1.2-0.3
				C348.6,191.3,349.2,191.6,349.6,192.1z"/>
			<path class="st1" d="M357.3,194.9H353c0,0.4,0.1,0.7,0.4,1c0.2,0.2,0.5,0.3,0.8,0.3s0.5-0.1,0.7-0.2c0.2-0.1,0.3-0.3,0.4-0.5h2
				c-0.1,0.4-0.3,0.8-0.5,1.2c-0.3,0.3-0.6,0.6-1,0.8c-1,0.4-2.1,0.4-3-0.1c-0.5-0.2-0.8-0.6-1.1-1.1c-0.3-0.5-0.4-1.1-0.4-1.7
				c0-0.6,0.1-1.2,0.4-1.7s0.6-0.8,1.1-1.1c1-0.5,2.2-0.5,3.2,0c0.4,0.2,0.8,0.6,1.1,1c0.3,0.5,0.4,1,0.4,1.6
				C357.3,194.5,357.3,194.7,357.3,194.9z M355.1,193.2c-0.2-0.2-0.5-0.3-0.8-0.3s-0.6,0.1-0.9,0.3c-0.2,0.2-0.4,0.6-0.4,0.9h2.4
				C355.5,193.8,355.3,193.4,355.1,193.2L355.1,193.2z"/>
			<path class="st1" d="M361.8,196v1.6H361c-0.6,0-1.2-0.2-1.7-0.5c-0.4-0.5-0.7-1.1-0.6-1.8V193h-0.8v-1.6h0.8V190h1.9v1.5h1.2v1.6
				h-1.2v2.3c0,0.2,0,0.4,0.1,0.5s0.3,0.2,0.5,0.1L361.8,196z"/>
		</g>
		<g>
			<path class="st1" d="M192.3,168.1v7.7h-1.9V171l-1.7,4.8h-1.6l-1.7-4.8v4.8h-1.9v-7.7h2.3l2.1,5.4l2.1-5.4H192.3z"/>
			<path class="st1" d="M195.1,169.7l1.5,3.8l1.4-3.8h2.1l-3.8,9.1h-2.1l1.4-3.2l-2.6-5.9L195.1,169.7L195.1,169.7z"/>
			<path class="st1" d="M210.4,170.3c0.5,0.5,0.7,1.2,0.6,1.9v3.6h-1.9v-3.3c0-0.3-0.1-0.7-0.3-0.9s-0.5-0.3-0.9-0.3
				c-0.3,0-0.6,0.1-0.9,0.3c-0.2,0.3-0.4,0.6-0.3,1v3.3h-1.9v-3.3c0-0.3-0.1-0.7-0.3-0.9s-0.5-0.3-0.9-0.3c-0.3,0-0.7,0.1-0.9,0.3
				c-0.2,0.3-0.4,0.6-0.3,1v3.3h-1.9v-6.1h1.9v1c0.2-0.3,0.4-0.6,0.7-0.8c0.4-0.2,0.8-0.3,1.2-0.3s0.9,0.1,1.2,0.3
				c0.4,0.2,0.6,0.5,0.8,0.9c0.2-0.4,0.5-0.7,0.9-0.9C208.3,169.4,209.5,169.5,210.4,170.3L210.4,170.3z"/>
			<path class="st1" d="M218,173.1h-4.3c0,0.4,0.1,0.7,0.4,1c0.2,0.2,0.5,0.3,0.8,0.3c0.2,0,0.5-0.1,0.7-0.2
				c0.2-0.1,0.3-0.3,0.4-0.5h2c-0.1,0.4-0.3,0.8-0.5,1.2c-0.3,0.3-0.6,0.6-1,0.8c-1,0.4-2.1,0.4-3-0.1c-0.5-0.3-0.8-0.6-1.1-1.1
				s-0.4-1.1-0.4-1.7c0-0.6,0.1-1.2,0.4-1.7c0.2-0.5,0.6-0.8,1.1-1.1s1.1-0.4,1.6-0.4c0.6,0,1.1,0.1,1.6,0.4
				c0.5,0.2,0.8,0.6,1.1,1.1s0.4,1,0.4,1.6C218.1,172.7,218,172.9,218,173.1z M215.8,171.4c-0.2-0.2-0.5-0.3-0.8-0.3
				s-0.6,0.1-0.9,0.3c-0.2,0.2-0.4,0.6-0.4,0.9h2.4C216.2,171.9,216.1,171.6,215.8,171.4L215.8,171.4z"/>
			<path class="st1" d="M224.6,170.3c0.4,0.5,0.7,1.2,0.6,1.9v3.6h-1.9v-3.3c0-0.4-0.1-0.7-0.3-1c-0.2-0.2-0.5-0.4-0.9-0.4
				c-0.3,0-0.7,0.1-0.9,0.4c-0.2,0.3-0.4,0.6-0.3,1v3.3H219v-6.1h1.9v1.1c0.2-0.4,0.4-0.7,0.8-0.9c0.4-0.2,0.8-0.3,1.2-0.3
				C223.6,169.5,224.2,169.8,224.6,170.3z"/>
			<path class="st1" d="M230.6,170.2c0.5,0.4,0.8,0.9,0.9,1.5h-1.8c0-0.2-0.2-0.4-0.4-0.6c-0.2-0.1-0.4-0.2-0.7-0.2
				c-0.2,0-0.3,0-0.5,0.1c-0.1,0.1-0.2,0.2-0.2,0.4s0.1,0.4,0.3,0.4c0.3,0.1,0.6,0.2,0.9,0.3c0.4,0.1,0.8,0.2,1.2,0.3
				c0.3,0.1,0.6,0.3,0.8,0.6s0.3,0.6,0.3,1c0,0.3-0.1,0.7-0.3,0.9c-0.2,0.3-0.5,0.5-0.8,0.6c-0.4,0.2-0.8,0.2-1.3,0.2
				c-0.7,0-1.4-0.2-2-0.6c-0.5-0.4-0.8-0.9-0.9-1.6h1.8c0,0.2,0.1,0.5,0.3,0.6s0.5,0.2,0.8,0.2c0.2,0,0.4,0,0.5-0.1s0.2-0.2,0.2-0.4
				s-0.1-0.4-0.3-0.4c-0.3-0.1-0.7-0.2-1-0.3c-0.4-0.1-0.8-0.2-1.1-0.3s-0.6-0.3-0.8-0.5c-0.2-0.3-0.3-0.6-0.3-1
				c0-0.5,0.2-1,0.6-1.3c0.5-0.4,1.1-0.5,1.8-0.5C229.4,169.5,230.1,169.7,230.6,170.2z"/>
			<path class="st1" d="M232.7,167.2c0.5-0.4,1.1-0.4,1.6,0c0.4,0.4,0.4,1,0,1.4c-0.5,0.4-1.1,0.4-1.6,0
				C232.4,168.2,232.4,167.6,232.7,167.2z M234.5,169.7v6.1h-1.9v-6.1H234.5z"/>
			<path class="st1" d="M241.4,170.3c0.4,0.5,0.7,1.2,0.6,1.9v3.6h-1.9v-3.3c0-0.4-0.1-0.7-0.3-1c-0.2-0.2-0.5-0.4-0.9-0.4
				c-0.3,0-0.7,0.1-0.9,0.4c-0.2,0.3-0.4,0.6-0.3,1v3.3h-1.9v-6.1h1.9v1.1c0.2-0.4,0.4-0.7,0.8-0.9c0.4-0.2,0.8-0.3,1.2-0.3
				C240.3,169.5,240.9,169.8,241.4,170.3z"/>
			<path class="st1" d="M246.8,169.9c0.3,0.2,0.6,0.5,0.8,0.9v-1.1h1.9v6.1c0,0.5-0.1,1.1-0.3,1.6s-0.6,0.8-1,1.1
				c-0.5,0.3-1.1,0.4-1.7,0.4c-0.8,0-1.6-0.2-2.2-0.7c-0.6-0.4-0.9-1.1-1-1.8h1.9c0.1,0.2,0.2,0.4,0.4,0.6c0.2,0.2,0.5,0.2,0.8,0.2
				s0.7-0.1,0.9-0.3c0.3-0.3,0.4-0.7,0.4-1.1v-1.1c-0.2,0.4-0.4,0.7-0.8,0.9c-0.4,0.2-0.8,0.3-1.2,0.3c-0.5,0-1-0.1-1.4-0.4
				c-0.4-0.3-0.7-0.6-0.9-1.1s-0.4-1.1-0.4-1.7c0-0.6,0.1-1.1,0.4-1.7c0.4-0.9,1.3-1.5,2.3-1.5C246,169.6,246.4,169.7,246.8,169.9z
				 M245.2,171.6c-0.3,0.3-0.4,0.7-0.4,1.1c0,0.4,0.1,0.8,0.4,1.1c0.3,0.3,0.6,0.4,1,0.4s0.7-0.1,1-0.4c0.5-0.6,0.5-1.5,0-2.2
				C246.6,171.1,245.8,171.1,245.2,171.6L245.2,171.6z"/>
			<path class="st1" d="M256.3,170.3c0.4,0.5,0.7,1.2,0.6,1.9v3.6H255v-3.3c0-0.4-0.1-0.7-0.3-1c-0.2-0.2-0.5-0.4-0.9-0.4
				c-0.3,0-0.7,0.1-0.9,0.4c-0.2,0.3-0.3,0.6-0.3,1v3.3h-1.9v-8.1h1.9v3.1c0.2-0.4,0.4-0.7,0.8-0.9c0.4-0.2,0.8-0.3,1.2-0.3
				C255.2,169.5,255.8,169.8,256.3,170.3z"/>
		</g>
		<g>
			<path class="st1" d="M76.3,218.2l-1.7-2.9h-0.4v2.9h-1.9v-7.8h3.2c0.5,0,1.1,0.1,1.6,0.3c0.4,0.2,0.8,0.5,1,0.9s0.3,0.8,0.3,1.3
				s-0.2,1-0.5,1.4s-0.8,0.7-1.4,0.8l1.8,3.1H76.3z M74.2,213.9h1.2c0.3,0,0.6-0.1,0.8-0.3c0.2-0.2,0.3-0.5,0.3-0.7
				c0-0.3-0.1-0.5-0.3-0.7c-0.2-0.2-0.5-0.3-0.8-0.3h-1.2V213.9z"/>
			<path class="st1" d="M82.9,212.3c0.3,0.2,0.6,0.5,0.7,0.9V212h1.9v6.1h-1.9V217c-0.2,0.4-0.4,0.7-0.7,0.9
				c-0.4,0.2-0.8,0.3-1.2,0.3c-0.5,0-1-0.1-1.4-0.4c-0.4-0.3-0.8-0.6-1-1.1s-0.3-1.1-0.3-1.6c0-0.6,0.1-1.2,0.3-1.7
				c0.2-0.5,0.6-0.8,1-1.1s0.9-0.4,1.4-0.4C82.1,211.9,82.5,212.1,82.9,212.3z M81.3,214c-0.3,0.3-0.4,0.7-0.4,1.1
				c0,0.4,0.1,0.8,0.4,1.1s0.6,0.4,1,0.4s0.7-0.1,1-0.4c0.3-0.3,0.4-0.7,0.4-1.1c0-0.4-0.1-0.8-0.4-1.1s-0.6-0.4-1-0.4
				S81.5,213.7,81.3,214z"/>
			<path class="st1" d="M85.8,219.5h0.5c0.2,0,0.3,0,0.4-0.1s0.1-0.3,0.1-0.4v-7h1.9v6.9c0.1,1.1-0.6,2-1.7,2.2c-0.2,0-0.4,0-0.5,0
				h-0.7C85.8,221.1,85.8,219.5,85.8,219.5z M86.9,211c-0.4-0.4-0.4-1,0-1.4c0.2-0.2,0.5-0.3,0.8-0.3s0.6,0.1,0.8,0.3
				c0.4,0.4,0.4,1,0,1.4c-0.2,0.2-0.5,0.3-0.8,0.3S87.1,211.2,86.9,211z"/>
			<path class="st1" d="M94.1,212.5c0.5,0.4,0.8,0.9,0.9,1.5h-1.8c0-0.2-0.2-0.4-0.3-0.6c-0.2-0.1-0.4-0.2-0.7-0.2
				c-0.2,0-0.3,0-0.5,0.1c-0.1,0.1-0.2,0.2-0.2,0.4s0.1,0.4,0.3,0.4c0.3,0.1,0.7,0.2,1,0.3c0.4,0.1,0.8,0.2,1.2,0.3
				c0.3,0.1,0.6,0.3,0.8,0.6c0.4,0.6,0.4,1.4,0,2c-0.2,0.3-0.5,0.5-0.8,0.6c-0.4,0.2-0.8,0.2-1.3,0.2c-0.7,0-1.4-0.2-2-0.6
				c-0.5-0.4-0.8-0.9-0.9-1.6h1.8c0,0.2,0.1,0.5,0.3,0.6c0.2,0.1,0.5,0.2,0.8,0.2c0.2,0,0.4,0,0.5-0.1s0.2-0.2,0.2-0.4
				s-0.1-0.4-0.3-0.4c-0.3-0.1-0.7-0.2-1-0.3c-0.4-0.1-0.8-0.2-1.1-0.3c-0.3-0.1-0.6-0.3-0.8-0.5c-0.2-0.3-0.3-0.6-0.3-1
				c0-0.5,0.2-1,0.6-1.3c0.5-0.4,1.2-0.5,1.8-0.5C92.9,212,93.5,212.1,94.1,212.5z"/>
			<path class="st1" d="M101.7,212.7c0.4,0.5,0.7,1.2,0.6,1.9v3.6h-1.9v-3.4c0-0.4-0.1-0.7-0.3-1c-0.2-0.2-0.5-0.4-0.9-0.4
				c-0.3,0-0.7,0.1-0.9,0.4c-0.2,0.3-0.3,0.6-0.3,1v3.3h-1.9V210H98v3.1c0.2-0.4,0.4-0.7,0.8-0.9s0.8-0.3,1.2-0.3
				C100.6,212,101.2,212.2,101.7,212.7z"/>
			<path class="st1" d="M107.1,212.3c0.3,0.2,0.6,0.5,0.8,0.9V212h1.9v6.1h-1.9V217c-0.2,0.4-0.4,0.7-0.8,0.9s-0.8,0.3-1.2,0.3
				c-0.5,0-0.9-0.1-1.3-0.4c-0.4-0.3-0.7-0.6-0.9-1.1c-0.2-0.5-0.4-1.1-0.3-1.7c0-0.6,0.1-1.2,0.3-1.7c0.2-0.4,0.5-0.8,0.9-1.1
				s0.9-0.4,1.3-0.4C106.3,211.9,106.7,212,107.1,212.3z M105.5,214c-0.3,0.3-0.4,0.7-0.4,1.1c0,0.4,0.1,0.8,0.4,1.1s0.6,0.4,1,0.4
				s0.7-0.1,1-0.4c0.3-0.3,0.4-0.7,0.4-1.1c0-0.4-0.1-0.8-0.4-1.1s-0.6-0.4-1-0.4S105.7,213.7,105.5,214z"/>
			<path class="st1" d="M116.5,212.7c0.4,0.5,0.7,1.2,0.6,1.9v3.6h-1.9v-3.4c0-0.4-0.1-0.7-0.3-1c-0.2-0.2-0.5-0.4-0.9-0.4
				c-0.3,0-0.7,0.1-0.9,0.4c-0.2,0.3-0.4,0.6-0.3,1v3.3H111V210h1.9v3.1c0.2-0.4,0.4-0.7,0.8-0.9s0.8-0.3,1.2-0.3
				C115.5,211.9,116.1,212.2,116.5,212.7z"/>
			<path class="st1" d="M118.5,209.6c0.2-0.2,0.5-0.3,0.8-0.3s0.6,0.1,0.8,0.3c0.4,0.4,0.4,1,0,1.4c-0.2,0.2-0.5,0.3-0.8,0.3
				s-0.6-0.1-0.8-0.3C118.2,210.6,118.2,210,118.5,209.6z M120.3,212v6.1h-1.9V212H120.3z"/>
		</g>
		<g>
			<path class="st1" d="M194.1,291.7c-0.3,0.6-0.8,1.1-1.4,1.4c-0.7,0.3-1.4,0.5-2.2,0.5h-2.9v-7.8h2.9c0.8,0,1.5,0.1,2.2,0.5
				c0.6,0.3,1.1,0.8,1.4,1.4c0.3,0.6,0.5,1.3,0.5,2C194.6,290.4,194.4,291.1,194.1,291.7z M192.1,291.3c0.8-0.9,0.8-2.3,0-3.3
				c-0.5-0.4-1.1-0.6-1.7-0.6h-0.9v4.4h0.9C191,292,191.6,291.8,192.1,291.3L192.1,291.3z"/>
			<path class="st1" d="M201.2,288.1c0.4,0.5,0.7,1.2,0.6,1.9v3.6h-1.9v-3.3c0-0.4-0.1-0.7-0.3-1c-0.5-0.5-1.3-0.5-1.8,0
				c-0.2,0.3-0.4,0.6-0.3,1v3.3h-1.9v-8.1h1.9v3.1c0.2-0.4,0.4-0.7,0.8-0.9c0.4-0.2,0.8-0.3,1.2-0.3
				C200.2,287.3,200.8,287.6,201.2,288.1z"/>
			<path class="st1" d="M206.6,287.7c0.3,0.2,0.6,0.5,0.8,0.9v-1.1h1.9v6.1h-1.9v-1.1c-0.2,0.4-0.4,0.7-0.8,0.9
				c-0.4,0.2-0.8,0.3-1.2,0.3c-0.5,0-1-0.1-1.4-0.4s-0.7-0.6-0.9-1.1s-0.4-1.1-0.3-1.7c0-0.6,0.1-1.2,0.3-1.7
				c0.2-0.4,0.5-0.8,0.9-1.1c0.4-0.3,0.9-0.4,1.4-0.4C205.8,287.4,206.2,287.5,206.6,287.7z M205,289.5c-0.3,0.3-0.4,0.7-0.4,1.1
				s0.1,0.8,0.4,1.1c0.5,0.5,1.4,0.5,1.9,0c0.3-0.3,0.4-0.7,0.4-1.1s-0.1-0.8-0.4-1.1c-0.3-0.3-0.6-0.4-1-0.4
				C205.6,289.1,205.2,289.2,205,289.5z"/>
			<path class="st1" d="M214.2,293.6l-1.8-2.6v2.6h-1.9v-8.1h1.9v4.5l1.8-2.5h2.2l-2.4,3.1l2.5,3.1h-2.3V293.6z"/>
			<path class="st1" d="M220.7,287.7c0.3,0.2,0.6,0.5,0.8,0.9v-1.1h1.9v6.1h-1.9v-1.1c-0.2,0.4-0.4,0.7-0.8,0.9
				c-0.4,0.2-0.8,0.3-1.2,0.3c-0.5,0-1-0.1-1.4-0.4s-0.7-0.6-0.9-1.1s-0.4-1.1-0.4-1.7s0.1-1.2,0.4-1.7c0.4-0.9,1.3-1.5,2.3-1.5
				C219.9,287.4,220.4,287.5,220.7,287.7z M219.1,289.5c-0.3,0.3-0.4,0.7-0.4,1.1s0.1,0.8,0.4,1.1c0.3,0.3,0.6,0.4,1,0.4
				s0.7-0.1,1-0.4s0.4-0.7,0.4-1.1s-0.1-0.8-0.4-1.1C220.6,288.9,219.7,288.9,219.1,289.5L219.1,289.5z"/>
		</g>
		<g>
			<path class="st1" d="M110.1,370.5l3.1,4h-2.3l-2.6-3.5v3.5h-1.9v-7.8h1.9v3.4l2.7-3.4h2.3L110.1,370.5z"/>
			<path class="st1" d="M119.6,369c0.4,0.5,0.7,1.2,0.6,1.9v3.6h-1.9v-3.3c0-0.4-0.1-0.7-0.3-1c-0.2-0.2-0.5-0.4-0.9-0.4
				c-0.3,0-0.7,0.1-0.9,0.4c-0.2,0.3-0.3,0.6-0.3,1v3.3H114v-8.1h1.9v3.1c0.2-0.4,0.4-0.7,0.8-0.9c0.4-0.2,0.8-0.3,1.2-0.3
				C118.5,368.2,119.2,368.5,119.6,369z"/>
			<path class="st1" d="M127.5,368.4v6.1h-1.9v-1.1c-0.2,0.4-0.4,0.7-0.8,0.9c-0.4,0.2-0.8,0.3-1.2,0.3c-0.6,0-1.3-0.2-1.7-0.7
				c-0.4-0.5-0.7-1.2-0.6-1.9v-3.6h1.9v3.3c0,0.4,0.1,0.7,0.3,1c0.2,0.2,0.5,0.4,0.9,0.4c0.3,0,0.7-0.1,0.9-0.4
				c0.2-0.3,0.3-0.6,0.3-1v-3.3L127.5,368.4z"/>
			<path class="st1" d="M130.7,366.4v8.1h-1.9v-8.1H130.7z"/>
			<path class="st1" d="M137.6,369c0.4,0.5,0.7,1.2,0.6,1.9v3.6h-1.9v-3.3c0-0.4-0.1-0.7-0.3-1c-0.2-0.2-0.5-0.4-0.9-0.4
				c-0.3,0-0.7,0.1-0.9,0.4s-0.4,0.6-0.3,1v3.3H132v-6.1h1.9v1.1c0.2-0.4,0.4-0.7,0.8-0.9c0.4-0.2,0.8-0.3,1.2-0.3
				C136.5,368.2,137.2,368.5,137.6,369z"/>
			<path class="st1" d="M143,368.6c0.3,0.2,0.6,0.5,0.8,0.9v-1.1h1.9v6.1h-1.9v-1.1c-0.2,0.4-0.4,0.7-0.8,0.9
				c-0.4,0.2-0.8,0.3-1.2,0.3c-0.5,0-1-0.1-1.4-0.4s-0.7-0.6-0.9-1.1c-0.5-1.1-0.5-2.3,0-3.4c0.2-0.4,0.5-0.8,0.9-1.1
				c0.4-0.3,0.9-0.4,1.4-0.4C142.2,368.3,142.6,368.4,143,368.6z M141.4,370.4c-0.3,0.3-0.4,0.7-0.4,1.1s0.1,0.8,0.4,1.1
				c0.3,0.3,0.6,0.4,1,0.4s0.7-0.1,1-0.4s0.4-0.7,0.4-1.1s-0.1-0.8-0.4-1.1c-0.3-0.3-0.6-0.4-1-0.4
				C142,369.9,141.7,370.1,141.4,370.4L141.4,370.4z"/>
		</g>
		<g>
			<path class="st1" d="M202.4,427.2c0.3,0.3,0.4,0.8,0.4,1.2c0,0.6-0.2,1.2-0.7,1.6c-0.6,0.4-1.2,0.6-1.9,0.6h-3.6v-7.8h3.5
				c0.7,0,1.3,0.1,1.8,0.5c0.4,0.4,0.7,0.9,0.6,1.5c0,0.4-0.1,0.8-0.4,1.2c-0.2,0.3-0.6,0.5-1,0.6
				C201.7,426.6,202.1,426.9,202.4,427.2z M198.5,426h1.2c0.6,0,1-0.3,1-0.8s-0.3-0.8-1-0.8h-1.2V426z M200.9,428.2
				c0-0.2-0.1-0.5-0.3-0.6c-0.2-0.2-0.5-0.3-0.8-0.2h-1.3v1.7h1.3C200.5,429,200.9,428.7,200.9,428.2z"/>
			<path class="st1" d="M207.3,424.6c0.3,0.2,0.6,0.5,0.7,0.9v-1.1h1.9v6.1H208v-1.1c-0.2,0.4-0.4,0.7-0.7,0.9
				c-0.4,0.2-0.8,0.3-1.2,0.3c-0.5,0-1-0.1-1.4-0.4s-0.8-0.6-1-1.1c-0.5-1.1-0.5-2.3,0-3.4c0.2-0.5,0.6-0.8,1-1.1
				c0.4-0.3,0.9-0.4,1.4-0.4C206.6,424.3,207,424.4,207.3,424.6z M205.8,426.4c-0.3,0.3-0.4,0.7-0.4,1.1s0.1,0.8,0.4,1.1
				c0.3,0.3,0.6,0.4,1,0.4s0.7-0.1,1-0.4c0.5-0.6,0.5-1.5,0-2.2c-0.3-0.3-0.6-0.4-1-0.4C206.4,426,206,426.1,205.8,426.4z"/>
			<path class="st1" d="M214,424.7c0.4-0.2,0.8-0.3,1.2-0.3v2h-0.5c-0.4,0-0.8,0.1-1.2,0.3c-0.3,0.3-0.5,0.7-0.4,1.1v2.8h-1.9v-6.1
				h1.9v1.1C213.3,425.2,213.6,424.9,214,424.7z"/>
			<path class="st1" d="M216.2,422c0.5-0.4,1.2-0.4,1.6,0c0.2,0.2,0.3,0.4,0.3,0.7c0,0.3-0.1,0.5-0.3,0.7c-0.5,0.4-1.2,0.4-1.6,0
				c-0.2-0.2-0.3-0.4-0.3-0.7S216,422.2,216.2,422z M217.9,424.4v6.1H216v-6.1H217.9z"/>
			<path class="st1" d="M223.3,424.9c0.5,0.4,0.8,0.9,0.9,1.5h-1.8c0-0.2-0.2-0.4-0.4-0.6s-0.4-0.2-0.7-0.2c-0.2,0-0.3,0-0.5,0.1
				c-0.1,0.1-0.2,0.2-0.2,0.4c0,0.2,0.1,0.4,0.3,0.4c0.3,0.1,0.6,0.2,0.9,0.3c0.4,0.1,0.8,0.2,1.2,0.3c0.3,0.1,0.6,0.3,0.8,0.6
				c0.2,0.3,0.3,0.6,0.3,1c0,0.3-0.1,0.7-0.3,0.9c-0.2,0.3-0.5,0.5-0.8,0.6c-0.4,0.2-0.8,0.3-1.3,0.2c-0.7,0-1.4-0.2-2-0.5
				c-0.5-0.4-0.8-1-0.9-1.6h1.8c0,0.2,0.1,0.5,0.3,0.6s0.5,0.2,0.8,0.2c0.2,0,0.3,0,0.5-0.1c0.1-0.1,0.2-0.2,0.2-0.4
				c0-0.2-0.1-0.4-0.3-0.5c-0.3-0.1-0.7-0.2-1-0.3c-0.4-0.1-0.8-0.2-1.1-0.3c-0.3-0.1-0.6-0.3-0.8-0.5c-0.2-0.3-0.3-0.6-0.3-1
				c0-0.5,0.2-1,0.6-1.3c0.5-0.4,1.1-0.5,1.8-0.5C222.1,424.3,222.8,424.5,223.3,424.9z"/>
			<path class="st1" d="M230.9,425c0.4,0.5,0.7,1.2,0.6,1.9v3.6h-1.9v-3.3c0-0.4-0.1-0.7-0.3-1c-0.2-0.2-0.5-0.4-0.9-0.4
				c-0.3,0-0.7,0.1-0.9,0.4s-0.4,0.6-0.3,1v3.3h-1.9v-8.1h1.9v3.1c0.2-0.4,0.5-0.7,0.8-0.9c0.4-0.2,0.8-0.3,1.2-0.3
				C229.9,424.3,230.5,424.5,230.9,425z"/>
			<path class="st1" d="M236.3,424.6c0.3,0.2,0.6,0.5,0.8,0.9v-1.1h1.9v6.1h-1.9v-1.1c-0.2,0.4-0.4,0.7-0.8,0.9
				c-0.4,0.2-0.8,0.3-1.2,0.3c-0.5,0-1-0.1-1.4-0.4s-0.7-0.7-0.9-1.1c-0.5-1.1-0.5-2.3,0-3.4c0.2-0.4,0.5-0.8,0.9-1.1
				c0.4-0.3,0.9-0.4,1.4-0.4C235.5,424.3,235.9,424.4,236.3,424.6z M234.7,426.4c-0.3,0.3-0.4,0.7-0.4,1.1s0.1,0.8,0.4,1.1
				c0.5,0.5,1.4,0.5,1.9,0c0.5-0.6,0.5-1.5,0-2.2c-0.3-0.3-0.6-0.4-1-0.4C235.3,426,235,426.1,234.7,426.4z"/>
			<path class="st1" d="M242.1,422.4v8.1h-1.9v-8.1H242.1z"/>
		</g>
	</g>
</g>
</svg>
